date,USC00080228,USC00053005,USC00458773
2010-01-01,25.0,5.6,9.4
2010-01-02,18.9,8.3,11.1
2010-01-03,15.0,4.4,11.1
2010-01-04,7.8,3.9,7.8
2010-01-05,12.2,6.1,10.0
2010-01-06,9.4,0.6,12.2
2010-01-07,11.1,-10.0,8.3
2010-01-08,16.7,0.0,7.2
2010-01-09,20.6,6.7,6.1
2010-01-10,2.2,10.6,8.3
2010-01-11,7.8,10.6,8.3
2010-01-12,12.2,13.3,7.8
2010-01-13,16.7,12.8,10.6
2010-01-14,17.2,6.7,11.1
2010-01-15,22.2,8.3,11.7
2010-01-16,23.9,13.3,10.6
2010-01-17,26.1,10.6,10.6
2010-01-18,24.4,9.4,12.8
2010-01-19,21.7,8.3,14.4
2010-01-20,22.2,6.1,14.4
2010-01-21,25.0,5.6,11.7
2010-01-22,27.2,6.7,14.4
2010-01-23,26.7,7.8,8.9
2010-01-24,25.0,5.0,11.7
2010-01-25,28.3,4.4,6.7
2010-01-26,21.7,6.1,11.1
2010-01-27,20.6,3.9,11.1
2010-01-28,20.6,-0.6,12.2
2010-01-29,23.9,6.7,11.7
2010-01-30,25.6,7.8,11.1
2010-01-31,25.6,5.6,8.3
2010-02-01,15.6,7.8,10.6
2010-02-02,17.8,7.2,7.8
2010-02-03,21.1,7.8,12.8
2010-02-04,18.9,8.9,9.4
2010-02-05,25.0,7.2,11.7
2010-02-06,25.6,5.0,15.6
2010-02-07,20.0,2.2,12.8
2010-02-08,13.9,-1.1,12.8
2010-02-09,21.1,-2.2,10.6
2010-02-10,22.8,5.6,13.3
2010-02-11,14.4,6.1,8.9
2010-02-12,15.6,7.2,12.8
2010-02-13,19.4,10.6,12.8
2010-02-14,12.2,3.9,13.3
2010-02-15,12.8,3.9,13.9
2010-02-16,21.7,6.1,12.8
2010-02-17,15.0,8.9,15.6
2010-02-18,15.6,6.1,14.4
2010-02-19,15.6,-2.2,15.6
2010-02-20,16.7,-2.2,15.0
2010-02-21,21.7,-4.4,14.4
2010-02-22,25.0,0.0,13.9
2010-02-23,25.6,4.4,14.4
2010-02-24,25.6,8.3,7.8
2010-02-25,23.9,7.8,12.8
2010-02-26,15.0,8.9,13.3
2010-02-27,18.3,7.8,11.1
2010-02-28,12.2,3.9,13.9
2010-03-01,18.3,10.0,15.0
2010-03-02,22.2,13.9,15.0
2010-03-03,22.8,13.3,11.7
2010-03-04,14.4,13.3,11.7
2010-03-05,15.0,8.9,13.3
2010-03-06,17.2,13.3,15.6
2010-03-07,19.4,8.3,20.0
2010-03-08,22.2,11.1,13.9
2010-03-09,23.9,12.8,10.6
2010-03-10,23.3,6.7,7.8
2010-03-11,27.2,10.0,10.0
2010-03-12,26.7,16.7,10.0
2010-03-13,17.8,15.0,8.3
2010-03-14,21.7,11.1,11.7
2010-03-15,21.7,13.3,15.6
2010-03-16,21.7,20.0,18.3
2010-03-17,21.1,21.1,14.4
2010-03-18,20.0,18.3,12.8
2010-03-19,19.4,7.2,16.1
2010-03-20,22.2,3.9,18.3
2010-03-21,25.6,15.6,20.6
2010-03-22,23.3,18.9,13.9
2010-03-23,21.1,13.9,12.8
2010-03-24,21.1,7.2,16.7
2010-03-25,25.6,8.9,20.6
2010-03-26,26.7,9.4,11.7
2010-03-27,25.6,10.6,13.9
2010-03-28,28.9,17.2,18.3
2010-03-29,25.0,21.1,12.2
2010-03-30,21.1,26.1,8.9
2010-03-31,21.7,19.4,6.7
2010-04-01,24.4,13.3,12.8
2010-04-02,27.8,8.9,12.8
2010-04-03,21.7,13.9,11.7
2010-04-04,28.9,16.7,8.9
2010-04-05,28.3,17.2,11.7
2010-04-06,28.9,15.0,10.0
2010-04-07,28.3,10.6,12.8
2010-04-08,29.4,17.2,12.2
2010-04-09,28.9,17.8,10.0
2010-04-10,26.1,15.6,12.2
2010-04-11,28.3,21.1,11.1
2010-04-12,26.7,24.4,18.3
2010-04-13,27.8,21.1,16.7
2010-04-14,28.9,20.0,15.6
2010-04-15,27.8,18.9,18.3
2010-04-16,27.2,14.4,17.2
2010-04-17,27.2,11.7,20.0
2010-04-18,25.6,21.1,17.8
2010-04-19,22.8,21.7,22.8
2010-04-20,27.2,17.8,20.0
2010-04-21,28.3,15.6,13.9
2010-04-22,27.2,12.8,14.4
2010-04-23,28.9,7.2,16.7
2010-04-24,30.0,16.7,16.7
2010-04-25,31.7,17.8,14.4
2010-04-26,28.9,15.0,18.3
2010-04-27,27.8,18.3,18.3
2010-04-28,27.8,24.4,12.8
2010-04-29,25.6,16.1,12.8
2010-04-30,28.3,10.6,14.4
2010-05-01,30.0,13.9,14.4
2010-05-02,33.9,12.2,15.0
2010-05-03,33.9,19.4,16.1
2010-05-04,33.3,21.7,12.8
2010-05-05,31.7,17.2,11.7
2010-05-06,32.2,15.0,12.2
2010-05-07,32.2,13.9,15.6
2010-05-08,33.3,15.0,20.0
2010-05-09,32.8,21.1,20.0
2010-05-10,32.8,19.4,21.1
2010-05-11,32.8,13.9,15.6
2010-05-12,31.7,6.1,16.1
2010-05-13,31.1,12.8,18.3
2010-05-14,30.6,16.1,22.8
2010-05-15,31.1,13.9,25.0
2010-05-16,31.7,20.0,23.3
2010-05-17,30.6,23.3,23.9
2010-05-18,28.9,21.1,23.3
2010-05-19,31.1,19.4,18.3
2010-05-20,29.4,19.4,20.0
2010-05-21,32.8,23.3,14.4
2010-05-22,32.8,30.6,14.4
2010-05-23,32.2,22.2,12.2
2010-05-24,33.3,23.3,13.9
2010-05-25,32.2,21.1,15.6
2010-05-26,30.6,21.7,18.3
2010-05-27,30.0,28.3,15.6
2010-05-28,31.1,32.8,19.4
2010-05-29,31.7,28.9,12.8
2010-05-30,31.7,20.6,16.7
2010-05-31,33.3,26.7,18.3
2010-06-01,33.3,27.2,21.1
2010-06-02,33.3,23.9,17.2
2010-06-03,33.3,26.7,17.8
2010-06-04,31.1,31.1,16.7
2010-06-05,32.8,28.9,17.2
2010-06-06,33.9,31.1,23.3
2010-06-07,33.9,28.3,17.2
2010-06-08,33.3,25.6,20.0
2010-06-09,33.3,27.8,21.1
2010-06-10,32.2,27.2,17.2
2010-06-11,33.3,22.8,15.6
2010-06-12,35.0,14.4,18.3
2010-06-13,35.0,14.4,26.7
2010-06-14,33.9,19.4,22.2
2010-06-15,33.3,25.6,18.3
2010-06-16,35.0,29.4,14.4
2010-06-17,35.6,28.9,15.6
2010-06-18,33.3,27.2,17.8
2010-06-19,33.3,28.9,20.6
2010-06-20,33.9,26.7,19.4
2010-06-21,32.8,30.0,15.0
2010-06-22,33.3,31.1,19.4
2010-06-23,33.9,26.7,23.9
2010-06-24,33.9,32.2,28.3
2010-06-25,33.9,36.1,26.7
2010-06-26,35.0,32.2,22.8
2010-06-27,35.0,26.7,25.0
2010-06-28,35.0,31.1,27.2
2010-06-29,34.4,33.9,24.4
2010-06-30,33.9,32.8,18.9
2010-07-01,33.3,32.2,21.1
2010-07-02,32.8,31.7,17.8
2010-07-03,29.4,33.9,17.8
2010-07-04,30.0,28.3,21.1
2010-07-05,29.4,27.2,18.9
2010-07-06,28.3,31.1,20.0
2010-07-07,31.7,19.4,29.4
2010-07-08,32.8,22.8,34.4
2010-07-09,32.8,26.7,35.0
2010-07-10,34.4,30.0,33.9
2010-07-11,33.9,29.4,27.8
2010-07-12,32.2,33.9,26.7
2010-07-13,32.2,36.1,19.4
2010-07-14,33.3,33.9,21.1
2010-07-15,35.0,32.8,28.3
2010-07-16,33.3,35.6,28.3
2010-07-17,32.8,36.1,22.8
2010-07-18,33.9,33.9,23.9
2010-07-19,34.4,35.0,21.7
2010-07-20,34.4,27.2,22.8
2010-07-21,34.4,29.4,22.8
2010-07-22,34.4,32.2,26.7
2010-07-23,33.9,34.4,22.8
2010-07-24,28.3,29.4,27.8
2010-07-25,34.4,31.1,31.7
2010-07-26,33.9,34.4,31.7
2010-07-27,34.4,35.6,30.0
2010-07-28,34.4,28.3,27.8
2010-07-29,35.6,32.8,26.1
2010-07-30,34.4,32.2,26.7
2010-08-01,34.4,32.8,23.9
2010-08-02,34.4,27.8,25.0
2010-08-03,34.4,30.6,25.0
2010-08-04,34.4,27.8,26.1
2010-08-05,32.8,29.4,27.2
2010-08-06,33.9,30.6,28.9
2010-08-07,33.9,32.8,25.6
2010-08-08,31.7,30.0,23.3
2010-08-09,31.1,31.7,23.9
2010-08-10,32.8,31.1,19.4
2010-08-11,30.0,34.4,21.7
2010-08-12,30.6,32.2,26.7
2010-08-13,33.9,29.4,28.3
2010-08-14,33.9,25.6,33.9
2010-08-15,34.4,27.8,35.6
2010-08-16,34.4,25.0,36.1
2010-08-17,33.9,30.0,35.0
2010-08-18,34.4,36.1,33.3
2010-08-19,34.4,29.4,23.9
2010-08-20,34.4,31.7,23.3
2010-08-21,35.0,33.3,22.8
2010-08-22,32.8,33.9,21.7
2010-08-23,31.7,28.3,22.8
2010-08-24,27.8,26.1,26.1
2010-08-25,30.0,30.6,34.4
2010-08-26,31.7,34.4,34.4
2010-08-27,31.7,35.0,21.1
2010-08-28,32.8,32.8,22.2
2010-08-29,33.3,31.1,22.8
2010-08-30,32.8,28.9,20.6
2010-08-31,30.0,26.1,21.7
2010-09-01,32.2,28.9,16.1
2010-09-02,32.8,23.3,22.8
2010-09-03,32.8,25.6,30.6
2010-09-04,33.3,32.8,30.6
2010-09-05,32.2,33.9,21.1
2010-09-06,31.7,27.2,19.4
2010-09-07,33.3,26.7,22.8
2010-09-08,32.2,28.3,16.7
2010-09-09,31.7,30.0,18.9
2010-09-10,33.3,25.0,18.3
2010-09-11,33.9,26.1,19.4
2010-09-12,33.9,27.8,22.2
2010-09-13,33.9,30.6,25.0
2010-09-14,33.3,31.7,24.4
2010-09-15,32.2,28.3,23.3
2010-09-16,32.8,28.9,22.2
2010-09-17,33.3,26.7,22.8
2010-09-18,32.2,19.4,20.6
2010-09-19,31.7,31.1,18.3
2010-09-20,31.7,32.8,22.2
2010-09-21,32.2,23.3,19.4
2010-09-22,32.2,22.2,20.0
2010-09-23,32.2,25.0,21.1
2010-09-24,32.8,26.7,16.1
2010-09-25,32.8,25.0,23.3
2010-09-26,32.2,30.6,26.7
2010-09-27,33.9,30.0,19.4
2010-09-28,32.8,31.7,29.4
2010-09-29,29.4,27.8,23.9
2010-09-30,30.0,24.4,23.9
2010-10-01,30.6,26.7,29.4
2010-10-02,30.6,19.4,18.9
2010-10-03,30.6,24.4,20.6
2010-10-04,28.9,26.7,17.8
2010-10-05,27.8,27.8,16.1
2010-10-06,28.9,20.0,20.0
2010-10-07,27.2,27.2,26.1
2010-10-08,27.2,22.8,16.7
2010-10-09,28.9,20.0,20.6
2010-10-10,29.4,17.2,18.9
2010-10-11,30.0,21.7,16.7
2010-10-12,29.4,16.1,17.2
2010-10-13,30.6,17.8,20.6
2010-10-14,30.6,23.9,22.8
2010-10-15,29.4,25.6,20.0
2010-10-16,27.8,17.2,15.0
2010-10-17,28.3,20.6,16.1
2010-10-18,28.9,17.2,16.7
2010-10-19,28.3,20.6,18.3
2010-10-20,25.0,22.2,21.1
2010-10-21,28.3,21.7,21.7
2010-10-22,29.4,12.2,16.7
2010-10-23,30.0,17.8,17.2
2010-10-24,30.6,18.3,15.6
2010-10-25,31.7,17.2,12.2
2010-10-26,32.2,10.0,12.8
2010-10-27,32.8,10.0,10.0
2010-10-28,32.8,15.0,14.4
2010-10-29,32.8,21.1,12.2
2010-11-01,30.0,17.2,15.6
2010-11-02,30.6,22.8,17.8
2010-11-03,24.4,17.8,18.3
2010-11-04,30.0,13.9,21.7
2010-11-05,23.3,21.7,20.6
2010-11-06,18.9,23.3,15.6
2010-11-07,17.8,18.9,14.4
2010-11-08,21.1,18.3,13.3
2010-11-09,22.8,11.1,10.0
2010-11-10,25.6,5.0,10.6
2010-11-11,27.2,2.8,11.7
2010-11-12,27.2,3.9,9.4
2010-11-13,26.7,5.0,11.1
2010-11-14,25.6,5.6,9.4
2010-11-15,25.6,7.8,12.8
2010-11-16,26.7,13.3,15.6
2010-11-17,24.4,6.7,12.2
2010-11-18,28.3,6.7,10.0
2010-11-19,25.6,11.1,10.0
2010-11-20,25.6,1.7,7.8
2010-11-21,26.1,5.6,7.8
2010-11-23,27.8,7.8,4.4
2010-11-24,28.3,5.0,-1.1
2010-11-25,27.8,2.8,0.0
2010-11-26,28.9,8.3,6.1
2010-11-27,26.7,10.0,6.1
2010-11-28,26.7,10.6,6.7
2010-11-29,21.1,0.6,7.8
2010-11-30,28.9,3.3,7.2
2010-12-01,28.9,13.3,8.9
2010-12-02,20.0,9.4,8.3
2010-12-03,18.3,18.3,7.2
2010-12-04,19.4,11.1,10.6
2010-12-05,21.7,2.8,9.4
2010-12-06,23.3,7.2,10.0
2010-12-07,12.2,11.7,8.9
2010-12-08,12.8,7.8,8.9
2010-12-09,15.6,15.6,12.8
2010-12-10,16.7,14.4,10.6
2010-12-11,21.1,6.1,7.8
2010-12-12,17.8,6.7,15.0
2010-12-13,22.2,18.9,15.6
2010-12-14,11.7,12.2,13.9
2010-12-15,10.0,7.8,8.3
2010-12-16,14.4,3.3,8.3
2010-12-17,25.0,0.0,8.9
2010-12-18,24.4,2.2,8.3
2010-12-19,19.4,10.6,6.1
2010-12-20,18.3,10.0,7.2
2010-12-21,17.8,4.4,5.6
2010-12-22,21.7,3.3,8.9
2010-12-23,23.3,8.9,8.3
2010-12-24,20.6,9.4,8.9
2010-12-25,21.1,10.0,8.9
2010-12-26,22.2,10.0,7.8
2010-12-27,11.7,6.1,7.2
2010-12-28,11.1,7.8,8.9
2010-12-29,13.9,12.8,8.9
2010-12-30,20.0,2.2,5.0
2010-12-31,22.2,-9.4,-0.6
2011-01-04,23.3,3.9,3.9
2011-01-05,24.4,5.0,1.7
2011-01-06,24.4,9.4,6.1
2011-01-07,18.3,7.8,7.2
2011-01-08,18.9,7.8,7.8
2011-01-09,21.7,2.8,6.1
2011-01-10,20.6,-8.3,4.4
2011-01-11,25.6,-10.0,5.6
2011-01-12,22.8,-0.6,5.6
2011-01-13,12.8,11.1,11.7
2011-01-14,12.8,10.6,13.9
2011-01-15,20.0,6.7,15.0
2011-01-16,22.2,7.8,12.8
2011-01-17,24.4,13.9,13.3
2011-01-18,25.0,11.7,11.7
2011-01-19,25.6,5.6,7.2
2011-01-20,27.2,0.0,5.6
2011-01-21,25.6,10.0,5.6
2011-01-22,18.3,8.3,7.2
2011-01-23,15.6,7.8,10.0
2011-01-24,17.8,6.1,6.7
2011-01-25,26.1,7.8,11.1
2011-01-26,25.0,10.0,10.0
2011-01-27,18.9,15.0,11.7
2011-01-28,17.2,17.8,12.8
2011-01-29,18.9,16.1,11.7
2011-01-30,22.8,5.0,12.2
2011-01-31,25.0,0.6,8.3
2011-02-01,25.0,-13.9,7.8
2011-02-02,27.8,-11.7,7.8
2011-02-03,28.3,4.4,8.3
2011-02-04,26.1,8.3,10.0
2011-02-05,27.8,6.1,9.4
2011-02-06,26.1,1.7,10.0
2011-02-07,20.0,2.8,12.8
2011-02-08,27.2,1.1,8.9
2011-02-09,16.1,-5.6,10.6
2011-02-10,25.6,0.6,8.9
2011-02-11,22.8,6.1,8.3
2011-02-12,15.0,15.0,10.0
2011-02-13,17.2,18.9,13.9
2011-02-14,20.0,11.7,8.9
2011-02-15,22.2,16.1,12.8
2011-02-16,23.9,19.4,7.2
2011-02-17,25.0,12.8,6.7
2011-02-18,27.8,13.9,8.3
2011-02-19,27.2,14.4,5.6
2011-02-20,27.2,10.6,9.4
2011-02-21,26.7,6.1,7.2
2011-02-22,26.7,11.1,8.3
2011-02-23,27.2,9.4,7.8
2011-02-24,28.3,5.0,5.0
2011-02-25,28.3,-5.6,6.1
2011-02-26,27.2,10.6,1.1
2011-02-27,28.9,8.3,2.2
2011-02-28,29.4,13.9,7.2
2011-03-01,28.9,16.7,3.3
2011-03-02,26.1,11.7,8.9
2011-03-03,26.7,16.7,9.4
2011-03-04,26.1,11.7,9.4
2011-03-05,26.1,5.6,10.0
2011-03-06,27.2,7.2,12.8
2011-03-07,27.2,3.3,9.4
2011-03-08,24.4,4.4,10.6
2011-03-09,28.3,14.4,14.4
2011-03-10,30.0,21.1,13.3
2011-03-11,30.0,18.9,11.7
2011-03-12,18.9,12.2,13.3
2011-03-13,23.3,14.4,11.1
2011-03-14,25.6,16.7,12.2
2011-03-15,27.2,14.4,13.3
2011-03-16,27.2,22.8,11.1
2011-03-17,27.8,19.4,7.2
2011-03-18,28.9,12.8,10.0
2011-03-19,29.4,20.0,6.7
2011-03-20,30.0,18.3,11.7
2011-03-21,28.9,20.0,11.1
2011-03-22,29.4,18.3,11.7
2011-03-23,28.3,15.0,10.6
2011-03-24,28.3,9.4,15.0
2011-03-25,29.4,14.4,12.8
2011-03-26,30.0,13.9,10.6
2011-03-27,31.1,10.0,11.1
2011-03-28,26.7,13.3,10.6
2011-03-29,29.4,10.6,11.7
2011-03-30,29.4,13.3,11.7
2011-03-31,27.8,19.4,15.0
2011-04-01,26.7,21.1,17.2
2011-04-02,29.4,27.8,18.3
2011-04-03,30.6,22.2,11.1
2011-04-04,31.7,11.7,11.1
2011-04-05,26.1,23.3,10.0
2011-04-06,27.8,18.9,11.7
2011-04-07,30.6,16.7,10.0
2011-04-08,32.2,21.1,11.1
2011-04-09,32.2,20.6,15.6
2011-04-10,32.2,13.3,12.8
2011-04-11,31.7,17.2,12.2
2011-04-12,29.4,18.3,11.7
2011-04-13,29.4,14.4,13.3
2011-04-14,31.1,11.7,11.7
2011-04-15,31.7,14.4,10.0
2011-04-16,30.6,19.4,11.1
2011-04-17,30.0,20.0,12.8
2011-04-18,32.2,16.1,11.7
2011-04-20,33.3,10.0,13.9
2011-04-21,32.8,19.4,14.4
2011-04-22,31.7,14.4,11.1
2011-04-23,31.7,8.3,16.7
2011-04-24,31.1,11.7,21.1
2011-04-25,30.6,13.9,12.8
2011-04-26,31.7,13.3,12.8
2011-04-27,31.7,15.0,14.4
2011-04-28,34.4,21.7,12.8
2011-04-29,32.8,18.3,11.7
2011-04-30,30.0,10.0,13.9
2011-05-01,31.1,11.1,15.0
2011-05-02,32.2,12.8,18.9
2011-05-03,32.8,18.9,15.6
2011-05-04,32.8,18.3,15.0
2011-05-05,32.8,20.0,21.1
2011-05-06,30.0,24.4,14.4
2011-05-07,28.3,28.3,13.9
2011-05-08,30.0,29.4,13.9
2011-05-09,31.1,27.8,15.0
2011-05-10,32.2,22.8,15.0
2011-05-11,33.3,18.9,17.8
2011-05-12,33.3,10.0,13.9
2011-05-13,34.4,20.0,16.7
2011-05-14,31.7,15.6,22.2
2011-05-15,30.0,8.9,17.8
2011-05-16,28.3,17.2,13.9
2011-05-17,26.7,15.6,16.1
2011-05-18,27.8,11.7,16.7
2011-05-19,28.9,10.6,21.7
2011-05-20,31.1,15.0,22.2
2011-05-21,33.9,20.0,22.8
2011-05-22,33.9,25.0,15.6
2011-05-23,34.4,21.7,15.0
2011-05-24,31.1,13.9,16.1
2011-05-25,33.9,18.3,19.4
2011-05-26,32.8,17.2,11.1
2011-05-27,34.4,18.3,13.3
2011-05-28,31.7,16.1,13.9
2011-05-29,34.4,21.7,16.7
2011-05-30,33.9,21.7,12.8
2011-05-31,33.3,24.4,18.3
2011-06-01,33.9,25.0,16.1
2011-06-02,31.1,31.7,17.2
2011-06-03,32.8,25.0,16.1
2011-06-04,33.9,25.0,23.9
2011-06-05,33.9,31.1,29.4
2011-06-06,34.4,32.2,25.6
2011-06-07,33.9,28.9,21.7
2011-06-08,33.9,25.6,17.2
2011-06-09,33.3,21.1,16.7
2011-06-10,34.4,23.3,22.8
2011-06-11,35.0,26.7,17.2
2011-06-12,34.4,29.4,20.0
2011-06-13,34.4,28.9,19.4
2011-06-14,34.4,28.3,21.7
2011-06-15,34.4,28.9,18.3
2011-06-16,35.6,29.4,17.8
2011-06-18,35.6,25.0,23.9
2011-06-19,35.6,22.2,15.6
2011-06-20,35.0,20.6,19.4
2011-06-21,36.1,26.7,22.2
2011-06-22,36.1,27.8,27.8
2011-06-23,36.1,30.6,21.1
2011-06-24,35.0,30.6,19.4
2011-06-25,33.9,30.6,19.4
2011-06-26,30.6,32.2,21.1
2011-06-27,31.1,27.8,23.3
2011-06-28,31.1,34.4,23.9
2011-06-29,31.1,36.1,21.1
2011-06-30,29.4,30.0,20.6
2011-07-01,30.6,30.6,18.9
2011-07-02,31.7,30.0,25.0
2011-07-03,31.1,33.3,27.8
2011-07-04,32.8,35.6,23.3
2011-07-05,31.7,29.4,26.1
2011-07-06,33.3,25.6,29.4
2011-07-07,32.2,26.7,29.4
2011-07-08,28.3,31.1,19.4
2011-07-09,30.6,30.6,20.6
2011-07-10,32.8,31.7,24.4
2011-07-11,32.2,31.7,25.6
2011-07-12,32.2,27.8,22.2
2011-07-13,32.8,28.3,20.0
2011-07-14,32.2,29.4,21.1
2011-07-15,32.8,32.2,20.6
2011-07-16,32.8,30.6,25.0
2011-07-17,34.4,32.8,22.8
2011-07-18,33.3,33.9,19.4
2011-07-19,31.7,35.0,22.2
2011-07-20,32.8,34.4,20.0
2011-07-21,33.9,33.3,23.9
2011-07-22,33.3,35.0,21.1
2011-07-23,33.9,34.4,22.8
2011-07-24,34.4,32.8,27.8
2011-07-25,35.0,35.0,29.4
2011-07-26,34.4,30.0,23.3
2011-07-27,31.1,31.1,21.7
2011-07-28,31.7,30.6,23.3
2011-07-29,34.4,32.2,27.8
2011-07-30,34.4,35.0,26.1
2011-07-31,34.4,35.6,27.2
2011-08-01,35.0,32.8,25.0
2011-08-02,33.9,28.9,27.8
2011-08-03,31.7,30.0,26.1
2011-08-04,32.2,29.4,27.8
2011-08-05,33.3,31.7,27.2
2011-08-06,34.4,32.8,23.9
2011-08-07,35.0,33.9,22.8
2011-08-08,33.3,33.9,23.9
2011-08-09,32.2,32.2,22.2
2011-08-10,30.0,28.9,19.4
2011-08-11,28.3,33.9,23.9
2011-08-12,34.4,29.4,25.0
2011-08-13,34.4,29.4,26.1
2011-08-14,35.0,32.2,21.1
2011-08-15,33.9,32.8,22.2
2011-08-16,33.9,28.9,25.0
2011-08-17,32.8,33.9,27.2
2011-08-18,33.9,35.0,26.7
2011-08-19,35.0,26.7,24.4
2011-08-20,34.4,29.4,26.1
2011-08-21,31.7,32.8,33.3
2011-08-22,34.4,32.2,31.1
2011-08-23,34.4,36.7,26.7
2011-08-24,34.4,33.9,28.3
2011-08-25,33.9,34.4,30.6
2011-08-26,33.3,33.3,30.6
2011-08-27,33.9,34.4,29.4
2011-08-28,34.4,35.0,30.0
2011-08-29,33.9,27.8,26.7
2011-08-30,31.7,32.2,22.2
2011-08-31,29.4,36.1,20.0
2011-09-01,30.0,34.4,20.6
2011-09-02,33.3,27.8,25.0
2011-09-03,33.3,22.8,23.3
2011-09-04,32.8,23.3,28.9
2011-09-05,33.9,29.4,31.1
2011-09-06,32.8,21.7,30.0
2011-09-07,30.6,17.2,31.7
2011-09-08,31.1,23.9,33.9
2011-09-09,31.7,25.0,30.6
2011-09-10,32.2,25.0,31.7
2011-09-11,33.9,28.3,32.2
2011-09-12,34.4,30.0,33.9
2011-09-13,33.3,26.1,23.9
2011-09-14,33.9,18.9,20.0
2011-09-15,33.3,14.4,18.9
2011-09-16,32.8,22.8,19.4
2011-09-17,34.4,21.7,18.3
2011-09-18,33.9,22.8,12.2
2011-09-19,33.3,27.2,15.6
2011-09-20,33.9,22.8,22.2
2011-09-21,34.4,18.9,27.2
2011-09-22,33.9,25.0,29.4
2011-09-23,33.3,30.0,26.7
2011-09-24,33.3,30.6,28.3
2011-09-25,32.8,31.1,28.3
2011-09-26,32.2,30.6,18.3
2011-09-27,27.8,29.4,21.1
2011-09-28,32.2,32.8,20.0
2011-09-29,33.3,20.0,23.3
2011-09-30,32.8,25.0,28.3
2011-10-01,32.2,29.4,22.2
2011-10-02,30.0,30.6,16.7
2011-10-03,28.9,27.8,17.2
2011-10-04,31.1,27.2,20.0
2011-10-05,30.6,23.9,18.9
2011-10-06,31.1,23.3,13.3
2011-10-07,30.0,19.4,13.3
2011-10-08,31.1,10.6,14.4
2011-10-09,27.2,12.8,19.4
2011-10-10,26.1,18.3,14.4
2011-10-11,30.0,21.7,18.9
2011-10-12,31.7,21.7,17.2
2011-10-13,31.7,22.8,17.8
2011-10-14,29.4,18.3,12.8
2011-10-15,30.6,28.9,15.0
2011-10-16,28.9,17.2,16.7
2011-10-17,28.9,14.4,17.2
2011-10-18,27.2,15.6,17.8
2011-10-19,25.0,15.6,23.9
2011-10-20,27.8,23.9,16.1
2011-10-21,21.1,22.2,16.1
2011-10-22,22.8,20.6,16.1
2011-10-23,25.6,21.7,18.3
2011-10-24,27.2,23.9,16.1
2011-10-25,26.7,17.2,15.0
2011-10-26,28.3,1.7,14.4
2011-10-27,30.0,6.7,11.7
2011-10-28,30.0,8.9,14.4
2011-10-29,24.4,15.6,12.8
2011-10-30,26.7,13.9,15.6
2011-10-31,25.0,21.1,15.6
2011-11-01,26.1,11.1,13.3
2011-11-02,26.1,4.4,9.4
2011-11-03,27.8,6.1,15.6
2011-11-04,27.2,12.2,14.4
2011-11-05,22.8,12.8,7.8
2011-11-06,24.4,8.3,8.3
2011-11-07,26.7,5.6,11.1
2011-11-08,26.7,8.9,10.6
2011-11-09,27.2,8.9,12.8
2011-11-10,27.8,15.0,13.9
2011-11-11,26.1,15.0,14.4
2011-11-12,21.1,17.2,7.8
2011-11-13,25.6,13.9,8.9
2011-11-14,27.8,13.3,11.7
2011-11-15,29.4,11.1,10.0
2011-11-16,30.6,6.7,6.1
2011-11-17,30.0,10.6,11.7
2011-11-18,30.0,18.3,8.9
2011-11-19,25.6,10.6,5.0
2011-11-20,28.9,7.8,6.1
2011-11-21,29.4,10.0,7.8
2011-11-22,30.6,13.3,12.2
2011-11-23,29.4,17.2,14.4
2011-11-24,28.3,18.3,10.6
2011-11-25,27.2,14.4,7.8
2011-11-26,26.7,8.3,10.0
2011-11-27,27.8,13.9,11.7
2011-11-28,27.8,16.7,13.3
2011-11-29,29.4,12.2,5.6
2011-11-30,27.2,15.0,7.2
2011-12-01,20.6,8.9,10.6
2011-12-02,21.7,2.8,9.4
2011-12-03,25.0,1.1,9.4
2011-12-04,26.1,0.6,1.7
2011-12-05,26.1,-7.2,6.1
2011-12-06,27.8,-1.7,7.8
2011-12-07,28.3,6.7,1.7
2011-12-08,26.7,3.3,4.4
2011-12-09,19.4,1.1,7.8
2011-12-10,27.8,6.7,0.0
2011-12-11,25.6,8.3,5.0
2011-12-12,26.1,5.6,9.4
2011-12-13,26.1,1.7,7.2
2011-12-14,27.2,9.4,6.1
2011-12-15,27.2,4.4,5.6
2011-12-16,25.6,4.4,6.1
2011-12-17,27.2,7.2,8.9
2011-12-18,27.2,12.8,6.7
2011-12-19,22.8,3.9,6.1
2011-12-20,25.0,6.1,6.1
2011-12-21,26.7,3.3,5.6
2011-12-22,27.8,2.2,5.6
2011-12-23,28.9,3.9,8.3
2011-12-24,29.4,6.1,10.6
2011-12-25,27.8,6.1,5.0
2011-12-26,28.9,10.0,6.7
2011-12-27,26.7,8.9,7.8
2011-12-28,23.9,13.9,12.2
2011-12-29,18.9,15.0,13.3
2011-12-30,20.0,11.1,12.2
2011-12-31,26.7,12.2,8.3
2012-01-01,27.8,2.8,4.4
2012-01-02,27.8,10.0,10.0
2012-01-03,21.7,14.4,12.2
2012-01-04,11.1,13.9,8.3
2012-01-05,16.7,18.9,12.2
2012-01-06,20.6,15.6,10.6
2012-01-07,22.8,6.1,3.9
2012-01-08,25.0,5.6,7.2
2012-01-09,27.2,11.7,6.7
2012-01-10,26.7,15.0,6.1
2012-01-11,27.2,9.4,6.7
2012-01-12,23.9,7.8,8.9
2012-01-13,26.1,11.1,7.8
2012-01-14,21.7,14.4,6.7
2012-01-15,16.7,9.4,6.7
2012-01-16,22.2,10.6,3.3
2012-01-17,23.9,-1.7,2.8
2012-01-18,25.6,8.9,3.3
2012-01-19,26.1,17.2,11.1
2012-01-20,23.3,13.3,7.8
2012-01-21,26.1,13.9,11.1
2012-01-22,26.7,8.9,8.3
2012-01-23,28.3,7.8,7.2
2012-01-24,28.3,6.7,4.4
2012-01-25,29.4,18.3,12.8
2012-01-26,28.9,11.1,12.2
2012-01-27,28.9,8.9,8.9
2012-01-28,22.2,5.6,5.6
2012-01-29,23.9,16.7,8.9
2012-01-30,25.6,14.4,9.4
2012-01-31,25.0,9.4,11.1
2012-02-01,27.2,10.0,10.6
2012-02-02,28.3,7.2,10.0
2012-02-03,27.8,1.7,11.1
2012-02-04,28.3,2.8,11.1
2012-02-05,28.9,3.3,12.8
2012-02-06,27.8,6.1,13.9
2012-02-07,25.6,0.6,13.3
2012-02-08,25.0,5.6,11.7
2012-02-09,27.2,7.2,8.9
2012-02-10,25.0,4.4,10.6
2012-02-11,29.4,-3.3,10.6
2012-02-12,19.4,-1.1,10.0
2012-02-13,13.3,7.8,9.4
2012-02-14,21.7,6.1,11.1
2012-02-15,25.6,2.8,7.2
2012-02-16,28.9,5.0,7.2
2012-02-17,27.8,5.6,9.4
2012-02-18,27.2,6.1,10.0
2012-02-19,27.2,7.8,7.2
2012-02-20,27.2,7.2,7.8
2012-02-21,23.3,11.7,10.0
2012-02-22,27.8,15.6,11.1
2012-02-23,27.2,12.2,11.1
2012-02-24,28.3,5.6,10.0
2012-02-25,30.0,16.7,10.6
2012-02-26,25.0,4.4,6.1
2012-02-27,23.9,8.3,7.2
2012-02-28,30.0,6.1,7.2
2012-02-29,30.0,14.4,5.6
2012-03-01,31.1,7.8,4.4
2012-03-02,30.6,2.8,4.4
2012-03-03,30.0,11.1,7.8
2012-03-04,30.6,18.3,12.8
2012-03-05,20.0,20.6,13.9
2012-03-06,25.0,22.2,7.2
2012-03-07,27.2,16.7,8.9
2012-03-08,27.8,10.0,10.6
2012-03-09,28.9,16.1,15.6
2012-03-10,30.0,20.0,15.6
2012-03-11,29.4,19.4,10.6
2012-03-12,27.8,20.0,7.2
2012-03-13,28.3,23.3,10.0
2012-03-14,28.3,22.8,7.2
2012-03-15,29.4,21.7,10.0
2012-03-16,30.6,25.0,12.2
2012-03-17,30.0,23.9,11.1
2012-03-18,30.0,21.7,8.9
2012-03-19,30.0,12.8,5.6
2012-03-20,30.0,12.8,7.8
2012-03-21,30.0,19.4,8.9
2012-03-22,31.7,22.2,3.9
2012-03-23,31.7,24.4,5.6
2012-03-24,31.1,23.9,13.3
2012-03-25,29.4,20.6,17.2
2012-03-26,27.8,27.2,12.8
2012-03-27,28.9,21.1,14.4
2012-03-28,30.6,23.9,11.1
2012-03-29,31.1,22.2,12.2
2012-03-30,30.0,25.0,11.7
2012-03-31,32.2,26.7,10.0
2012-04-01,29.4,27.8,12.2
2012-04-02,31.1,21.1,8.9
2012-04-03,31.7,6.7,16.7
2012-04-04,33.3,17.2,8.9
2012-04-05,31.7,21.7,9.4
2012-04-06,30.6,25.0,7.8
2012-04-07,30.0,16.1,11.1
2012-04-08,29.4,22.2,16.1
2012-04-09,28.9,20.6,18.9
2012-04-10,30.6,23.9,18.3
2012-04-11,30.6,20.0,18.3
2012-04-12,30.6,20.6,12.8
2012-04-13,30.6,17.2,14.4
2012-04-14,31.7,16.7,16.1
2012-04-15,26.1,11.1,16.1
2012-04-16,30.0,14.4,17.8
2012-04-17,30.6,20.0,15.0
2012-04-18,31.7,20.6,11.1
2012-04-19,31.1,18.9,15.6
2012-04-20,29.4,22.2,10.6
2012-04-21,31.7,22.8,13.3
2012-04-22,25.0,23.3,23.3
2012-04-23,26.7,28.9,27.2
2012-04-24,23.9,31.1,27.2
2012-04-25,23.3,27.8,16.7
2012-04-26,28.3,26.7,19.4
2012-04-27,31.1,21.1,14.4
2012-04-28,31.7,16.1,13.3
2012-04-29,32.2,18.9,17.2
2012-04-30,28.9,26.1,19.4
2012-05-01,30.6,25.6,15.0
2012-05-02,31.7,25.0,12.2
2012-05-03,32.2,27.2,13.9
2012-05-04,33.9,30.6,15.6
2012-05-05,33.3,28.9,11.1
2012-05-06,33.9,20.6,13.3
2012-05-07,33.3,10.0,20.0
2012-05-08,32.8,19.4,25.0
2012-05-09,32.2,26.7,21.7
2012-05-10,32.8,29.4,15.6
2012-05-11,32.2,23.3,16.1
2012-05-12,33.9,10.0,22.8
2012-05-13,32.8,17.8,28.3
2012-05-14,31.7,27.2,29.4
2012-05-15,32.8,26.7,29.4
2012-05-16,32.2,30.0,25.0
2012-05-17,27.2,26.7,22.2
2012-05-18,31.1,28.9,18.9
2012-05-19,32.2,20.6,17.2
2012-05-20,32.2,23.9,20.6
2012-05-21,32.8,29.4,21.7
2012-05-22,33.3,32.8,16.1
2012-05-23,34.4,25.0,15.0
2012-05-24,34.4,19.4,20.0
2012-05-25,33.9,21.1,15.6
2012-05-26,34.4,30.0,21.7
2012-05-27,35.0,27.8,18.9
2012-05-28,32.8,22.8,17.8
2012-05-29,32.8,25.0,16.7
2012-05-30,33.3,28.3,18.9
2012-05-31,33.9,22.8,22.8
2012-06-01,33.3,26.7,24.4
2012-06-02,27.8,25.0,23.3
2012-06-03,32.2,30.0,17.8
2012-06-04,33.3,33.3,17.2
2012-06-05,33.3,30.0,15.6
2012-06-06,30.6,30.6,16.7
2012-06-07,30.0,28.3,18.9
2012-06-08,31.1,31.7,18.3
2012-06-09,29.4,33.9,13.9
2012-06-10,33.3,28.9,17.8
2012-06-11,34.4,25.0,19.4
2012-06-12,34.4,27.2,24.4
2012-06-13,33.9,33.3,20.0
2012-06-14,33.9,28.9,17.2
2012-06-15,33.9,30.0,19.4
2012-06-16,33.3,25.6,25.0
2012-06-17,32.2,34.4,28.3
2012-06-18,31.7,37.2,21.1
2012-06-19,32.2,33.9,17.8
2012-06-20,30.6,29.4,18.3
2012-06-21,29.4,31.1,26.1
2012-06-22,31.1,36.1,26.7
2012-06-23,31.1,37.8,18.3
2012-06-24,26.7,38.3,17.2
2012-06-25,27.2,38.9,19.4
2012-06-26,27.8,36.7,19.4
2012-06-27,30.0,34.4,18.3
2012-06-28,31.7,33.9,24.4
2012-06-29,32.8,35.6,23.9
2012-06-30,32.8,34.4,23.9
2012-07-01,32.8,36.7,21.1
2012-07-02,33.9,35.0,19.4
2012-07-03,33.9,34.4,22.2
2012-07-04,34.4,35.6,25.0
2012-07-05,34.4,33.3,26.7
2012-07-06,33.9,29.4,26.7
2012-07-07,35.0,26.1,27.2
2012-07-08,34.4,24.4,29.4
2012-07-09,35.0,26.7,29.4
2012-07-10,35.0,28.3,26.7
2012-07-11,33.9,30.6,26.7
2012-07-12,31.1,32.8,29.4
2012-07-13,31.7,33.3,26.7
2012-07-14,33.3,33.9,25.6
2012-07-15,32.2,32.8,26.7
2012-07-16,31.7,32.8,21.1
2012-07-17,31.1,31.1,26.1
2012-07-18,28.9,35.0,26.7
2012-07-19,33.3,35.0,21.7
2012-07-20,34.4,36.7,26.1
2012-07-21,35.0,35.6,21.1
2012-07-22,34.4,34.4,26.1
2012-07-23,32.8,35.6,20.0
2012-07-24,32.8,34.4,21.1
2012-07-25,31.7,30.0,26.1
2012-07-26,33.9,31.1,29.4
2012-07-27,33.9,31.1,26.7
2012-07-28,32.8,31.1,21.1
2012-07-29,33.3,32.8,23.9
2012-07-30,33.3,29.4,22.8
2012-07-31,34.4,33.9,22.2
2012-08-01,32.8,32.2,21.7
2012-08-02,33.9,31.1,21.7
2012-08-03,34.4,33.9,23.3
2012-08-04,33.9,28.9,30.6
2012-08-05,34.4,32.8,37.8
2012-08-06,35.0,36.1,33.9
2012-08-07,35.0,33.9,31.7
2012-08-08,34.4,34.4,25.6
2012-08-09,35.0,31.1,23.3
2012-08-10,35.0,32.2,26.1
2012-08-11,34.4,32.8,25.6
2012-08-12,31.1,29.4,29.4
2012-08-13,31.1,26.7,32.2
2012-08-14,32.8,32.8,31.1
2012-08-15,34.4,35.0,30.6
2012-08-16,33.9,21.7,33.3
2012-08-17,31.7,27.2,36.7
2012-08-18,32.2,27.8,35.6
2012-08-19,30.0,27.2,23.9
2012-08-20,32.8,27.2,25.0
2012-08-21,33.3,30.6,25.6
2012-08-22,33.9,32.2,24.4
2012-08-23,32.2,28.9,22.8
2012-08-24,33.3,32.2,22.2
2012-08-25,33.9,25.6,23.9
2012-08-26,31.7,33.9,28.3
2012-08-27,28.9,33.3,23.3
2012-08-28,30.6,35.0,25.6
2012-08-29,32.2,35.0,25.6
2012-08-30,32.8,32.2,23.9
2012-08-31,33.9,34.4,25.0
2012-09-01,33.3,32.8,22.8
2012-09-02,33.3,32.2,23.3
2012-09-03,33.3,31.7,23.9
2012-09-04,33.3,33.3,25.0
2012-09-05,33.3,27.8,27.8
2012-09-06,32.8,31.1,29.4
2012-09-07,32.8,27.2,31.7
2012-09-08,33.3,26.1,34.4
2012-09-09,32.8,30.0,26.7
2012-09-10,30.0,32.8,20.0
2012-09-11,31.1,28.9,21.1
2012-09-12,32.2,17.2,23.9
2012-09-13,31.7,21.7,28.3
2012-09-14,28.9,25.0,31.1
2012-09-15,32.8,30.0,30.6
2012-09-16,31.1,30.0,26.1
2012-09-17,32.2,21.7,27.2
2012-09-18,32.8,25.6,31.7
2012-09-19,31.7,28.3,31.1
2012-09-20,31.1,27.8,22.8
2012-09-21,31.7,26.7,17.2
2012-09-22,30.0,23.9,17.2
2012-09-23,30.0,29.4,22.2
2012-09-24,32.2,27.2,21.1
2012-09-25,27.8,22.8,22.2
2012-09-26,30.0,18.9,21.7
2012-09-27,31.7,19.4,22.2
2012-09-28,32.8,21.1,27.2
2012-09-29,32.8,24.4,27.8
2012-09-30,33.3,26.1,22.8
2012-10-01,33.3,22.8,22.8
2012-10-02,33.3,27.8,26.7
2012-10-03,30.0,28.3,20.0
2012-10-04,32.8,7.8,21.1
2012-10-05,32.2,4.4,22.2
2012-10-06,32.2,6.1,21.1
2012-10-07,31.7,12.8,22.8
2012-10-08,31.1,21.1,25.6
2012-10-09,31.1,11.7,22.2
2012-10-10,31.7,15.6,20.0
2012-10-11,31.1,15.6,18.9
2012-10-12,30.6,13.3,20.0
2012-10-13,30.0,17.2,13.9
2012-10-14,30.0,21.7,17.2
2012-10-15,31.1,23.9,17.8
2012-10-16,30.6,23.9,17.8
2012-10-17,31.1,19.4,16.1
2012-10-18,27.8,20.6,16.1
2012-10-19,31.1,20.6,19.4
2012-10-20,30.6,22.2,14.4
2012-10-21,29.4,20.0,11.7
2012-10-22,28.9,16.7,11.1
2012-10-23,30.0,25.0,11.1
2012-10-24,28.9,15.0,10.6
2012-10-25,30.6,4.4,11.7
2012-10-26,28.3,2.8,11.1
2012-10-27,29.4,11.1,15.0
2012-10-28,26.7,15.0,15.6
2012-10-29,25.0,16.1,18.3
2012-10-30,21.1,20.6,17.2
2012-10-31,20.6,21.7,14.4
2012-11-01,22.8,16.1,15.0
2012-11-02,25.0,18.3,15.0
2012-11-03,26.7,15.0,15.6
2012-11-04,28.3,18.3,18.9
2012-11-05,28.3,17.2,16.7
2012-11-06,26.1,17.2,12.8
2012-11-07,24.4,21.1,13.3
2012-11-08,20.6,13.9,10.0
2012-11-09,20.6,13.9,7.2
2012-11-10,24.4,6.7,5.6
2012-11-11,25.6,3.3,7.2
2012-11-12,27.2,5.6,10.0
2012-11-13,28.3,11.7,11.1
2012-11-14,27.2,11.1,12.2
2012-11-15,27.2,6.7,12.8
2012-11-16,25.0,10.6,10.0
2012-11-17,19.4,15.6,9.4
2012-11-18,27.8,18.3,12.2
2012-11-19,24.4,10.0,13.9
2012-11-20,20.0,17.2,12.2
2012-11-21,23.9,21.7,9.4
2012-11-22,23.3,14.4,9.4
2012-11-23,23.3,7.8,10.0
2012-11-24,23.3,17.2,9.4
2012-11-25,24.4,14.4,8.9
2012-11-26,24.4,8.3,10.0
2012-11-27,26.7,12.8,7.8
2012-11-28,27.2,4.4,7.2
2012-11-29,24.4,15.6,8.9
2012-11-30,26.1,15.0,13.9
2012-12-01,26.7,15.6,13.9
2012-12-02,27.2,13.9,11.1
2012-12-03,27.8,14.4,9.4
2012-12-04,27.8,10.6,11.1
2012-12-05,26.7,17.2,11.7
2012-12-06,25.6,12.8,9.4
2012-12-07,27.8,9.4,8.3
2012-12-08,27.8,6.7,7.8
2012-12-09,29.4,-1.1,6.7
2012-12-10,28.9,6.1,7.2
2012-12-11,28.9,5.0,9.4
2012-12-12,27.8,15.0,6.7
2012-12-13,26.7,8.3,6.7
2012-12-14,22.2,6.1,7.2
2012-12-15,23.9,6.7,6.1
2012-12-16,25.6,3.9,3.9
2012-12-17,27.2,11.1,8.9
2012-12-18,26.7,7.8,5.0
2012-12-19,28.3,-2.2,3.3
2012-12-20,26.7,7.2,8.9
2012-12-21,28.3,10.0,5.0
2012-12-22,17.2,12.2,7.8
2012-12-23,17.8,11.7,8.3
2012-12-24,22.2,3.3,5.0
2012-12-25,22.8,-2.8,6.7
2012-12-26,25.6,-3.9,3.9
2012-12-27,26.1,-3.3,4.4
2012-12-28,19.4,1.7,6.7
2012-12-29,22.8,0.6,5.0
2012-12-30,25.6,4.4,3.3
2012-12-31,15.0,-2.8,6.1
2013-01-01,23.9,0.0,3.3
2013-01-02,26.1,0.6,5.6
2013-01-03,27.2,3.9,3.3
2013-01-04,27.2,9.4,3.3
2013-01-05,20.0,6.1,2.2
2013-01-06,26.1,9.4,7.2
2013-01-07,27.8,11.7,10.6
2013-01-08,22.8,12.8,11.1
2013-01-09,29.4,11.1,8.3
2013-01-10,30.0,3.9,8.3
2013-01-11,28.3,2.2,3.9
2013-01-12,28.3,-7.2,-1.1
2013-01-13,28.3,-9.4,-1.7
2013-01-14,28.3,-7.2,0.0
2013-01-15,28.3,0.6,1.7
2013-01-16,27.2,13.9,1.1
2013-01-17,28.3,10.0,6.7
2013-01-18,26.1,16.1,6.7
2013-01-19,21.1,13.3,1.7
2013-01-20,22.8,8.9,3.9
2013-01-21,24.4,12.2,5.6
2013-01-22,23.9,15.0,5.6
2013-01-23,20.0,16.7,1.1
2013-01-24,22.8,16.7,5.6
2013-01-25,23.9,13.9,8.9
2013-01-26,25.0,11.1,7.2
2013-01-27,25.0,15.0,5.0
2013-01-28,26.1,10.0,5.6
2013-01-29,28.9,2.2,7.2
2013-01-30,28.9,6.7,8.3
2013-01-31,28.9,5.0,10.0
2013-02-01,20.6,10.6,11.1
2013-02-02,21.1,13.9,11.7
2013-02-03,23.9,13.3,6.7
2013-02-04,21.7,12.8,10.0
2013-02-05,22.8,12.2,10.6
2013-02-06,26.7,11.7,9.4
2013-02-07,27.2,9.4,9.4
2013-02-08,28.3,11.7,7.8
2013-02-09,28.9,6.1,5.6
2013-02-10,26.7,2.8,6.7
2013-02-11,27.2,-0.6,6.1
2013-02-12,28.3,8.9,11.7
2013-02-13,28.9,11.1,10.0
2013-02-14,28.9,5.0,10.0
2013-02-15,21.1,5.6,15.0
2013-02-16,21.1,15.0,10.0
2013-02-17,20.6,16.1,7.2
2013-02-18,13.9,6.1,7.8
2013-02-19,21.1,4.4,11.7
2013-02-20,25.6,3.3,7.8
2013-02-21,26.7,0.6,6.1
2013-02-22,28.9,2.2,7.2
2013-02-23,30.0,6.1,7.2
2013-02-24,29.4,1.1,9.4
2013-02-25,30.6,1.7,7.8
2013-02-26,29.4,3.9,8.3
2013-02-27,28.3,5.0,10.0
2013-02-28,25.6,6.1,12.8
2013-03-01,23.9,6.7,14.4
2013-03-02,16.1,14.4,12.8
2013-03-03,15.6,17.2,9.4
2013-03-04,13.3,9.4,12.8
2013-03-05,21.1,4.4,8.3
2013-03-06,24.4,12.2,6.1
2013-03-07,20.0,17.2,12.8
2013-03-08,21.1,9.4,13.9
2013-03-09,25.0,4.4,13.9
2013-03-10,25.6,10.6,8.3
2013-03-11,26.1,13.3,10.6
2013-03-12,26.7,2.8,15.6
2013-03-13,22.2,17.2,16.7
2013-03-14,25.6,20.6,15.0
2013-03-15,22.2,24.4,16.1
2013-03-16,23.9,17.8,10.6
2013-03-17,26.1,14.4,7.8
2013-03-18,25.6,10.6,10.6
2013-03-19,26.1,12.8,11.1
2013-03-20,30.0,7.2,11.1
2013-03-21,26.1,12.8,7.8
2013-03-22,23.3,5.6,6.7
2013-03-23,26.7,0.0,8.9
2013-03-24,30.0,1.1,12.8
2013-03-25,28.9,1.7,16.1
2013-03-26,23.3,7.8,11.1
2013-03-27,16.7,12.2,17.8
2013-03-28,18.3,18.9,18.3
2013-03-29,23.3,20.6,18.9
2013-03-30,25.0,19.4,25.6
2013-03-31,26.7,20.6,22.2
2013-04-01,28.3,16.1,18.3
2013-04-02,28.3,7.2,17.2
2013-04-03,30.0,16.7,17.2
2013-04-04,31.7,20.6,15.6
2013-04-05,22.8,22.8,13.9
2013-04-06,24.4,17.8,12.8
2013-04-07,27.2,18.3,10.6
2013-04-08,30.0,18.3,11.7
2013-04-09,30.0,2.2,12.8
2013-04-10,30.0,-0.6,13.9
2013-04-11,32.2,13.9,12.8
2013-04-12,31.7,13.3,10.6
2013-04-13,29.4,16.7,9.4
2013-04-14,31.7,13.9,10.0
2013-04-15,32.2,5.6,12.8
2013-04-16,33.3,0.6,14.4
2013-04-17,32.8,-1.1,13.9
2013-04-18,32.8,5.6,13.3
2013-04-19,32.8,11.7,12.8
2013-04-20,31.7,14.4,13.3
2013-04-21,28.3,16.1,10.6
2013-04-22,30.0,12.2,17.8
2013-04-23,30.0,1.7,18.9
2013-04-24,30.0,13.9,22.2
2013-04-25,30.6,18.3,23.3
2013-04-26,31.1,20.6,24.4
2013-04-27,31.7,25.0,20.0
2013-04-28,30.0,27.2,17.8
2013-04-29,30.6,26.7,13.3
2013-04-30,31.7,22.8,12.2
2013-05-01,31.1,4.4,20.6
2013-05-02,26.1,7.8,25.0
2013-05-03,24.4,15.6,23.9
2013-05-04,29.4,15.0,27.2
2013-05-05,27.8,15.0,27.8
2013-05-06,26.1,19.4,27.2
2013-05-07,26.1,20.6,22.2
2013-05-08,26.1,20.0,20.0
2013-05-09,28.3,16.1,24.4
2013-05-10,30.6,21.1,27.2
2013-05-11,33.3,19.4,28.3
2013-05-12,33.3,27.8,20.0
2013-05-13,31.7,30.0,18.9
2013-05-14,29.4,28.9,18.3
2013-05-15,30.0,28.3,13.3
2013-05-16,30.6,27.8,17.8
2013-05-17,31.7,29.4,16.7
2013-05-18,32.8,25.0,13.3
2013-05-19,34.4,22.8,17.8
2013-05-20,33.9,18.3,21.7
2013-05-21,34.4,21.7,12.8
2013-05-22,30.6,23.3,8.9
2013-05-23,31.7,20.0,11.1
2013-05-24,32.8,28.9,13.9
2013-05-25,33.9,29.4,17.8
2013-05-26,33.3,29.4,17.2
2013-05-27,31.1,28.3,17.8
2013-05-28,31.7,26.7,16.7
2013-05-29,31.1,20.6,17.2
2013-05-30,30.6,21.7,16.1
2013-05-31,30.0,22.2,18.9
2013-06-01,30.0,22.8,22.2
2013-06-02,32.8,26.7,20.6
2013-06-03,31.7,31.1,22.8
2013-06-04,31.7,25.6,27.8
2013-06-05,27.8,17.2,26.7
2013-06-06,27.8,27.8,27.2
2013-06-07,27.8,28.3,24.4
2013-06-08,28.9,27.8,23.9
2013-06-09,31.7,30.6,21.1
2013-06-10,32.8,35.0,18.9
2013-06-11,33.3,35.6,17.8
2013-06-12,32.2,32.8,16.7
2013-06-13,34.4,28.3,16.1
2013-06-14,32.2,33.3,18.3
2013-06-15,31.7,26.7,25.0
2013-06-16,32.8,27.8,21.7
2013-06-17,33.9,27.8,23.9
2013-06-18,35.0,28.3,19.4
2013-06-19,34.4,33.9,17.8
2013-06-20,33.9,31.1,18.9
2013-06-21,32.8,33.9,19.4
2013-06-22,33.3,30.0,25.6
2013-06-23,33.3,28.9,19.4
2013-06-24,32.2,33.9,18.9
2013-06-25,33.9,31.7,18.9
2013-06-26,33.9,35.0,21.7
2013-06-27,33.3,36.1,25.6
2013-06-28,33.9,36.1,31.1
2013-06-29,32.8,30.0,29.4
2013-06-30,32.8,27.8,33.3
2013-07-01,31.7,26.7,34.4
2013-07-02,31.7,28.9,31.1
2013-07-03,30.6,30.0,28.3
2013-07-04,31.7,34.4,27.2
2013-07-05,31.7,31.1,22.2
2013-07-06,31.7,32.2,22.8
2013-07-07,32.8,30.0,25.0
2013-07-08,32.2,32.8,24.4
2013-07-09,32.8,35.0,29.4
2013-07-10,32.2,31.7,24.4
2013-07-11,31.1,36.7,22.8
2013-07-12,31.1,32.8,20.6
2013-07-13,31.7,32.8,25.0
2013-07-14,31.1,27.8,27.8
2013-07-15,30.0,26.1,27.8
2013-07-16,31.7,28.9,31.7
2013-07-17,30.6,31.7,22.8
2013-07-18,31.1,33.3,25.0
2013-07-19,29.4,26.1,26.1
2013-07-20,32.8,30.0,25.6
2013-07-21,32.8,28.9,26.1
2013-07-22,32.2,32.8,25.6
2013-07-23,33.3,30.0,29.4
2013-07-24,32.8,28.9,29.4
2013-07-25,32.8,25.6,29.4
2013-07-26,32.8,29.4,28.9
2013-07-27,32.8,23.9,24.4
2013-07-28,33.9,22.8,21.7
2013-07-29,33.3,25.0,23.3
2013-07-30,33.3,30.6,25.6
2013-07-31,33.3,31.7,23.3
2013-08-01,33.9,30.0,23.3
2013-08-02,33.9,32.2,18.3
2013-08-03,32.8,30.0,20.6
2013-08-04,33.9,28.9,25.6
2013-08-05,31.7,30.6,30.0
2013-08-06,33.3,30.6,29.4
2013-08-07,33.3,22.8,31.1
2013-08-08,33.9,22.8,28.9
2013-08-09,33.9,26.1,26.7
2013-08-10,33.3,29.4,24.4
2013-08-11,33.9,27.2,24.4
2013-08-12,34.4,28.3,21.7
2013-08-13,33.9,26.1,24.4
2013-08-14,35.6,26.7,28.3
2013-08-15,34.4,29.4,27.8
2013-08-16,31.1,31.7,25.0
2013-08-17,34.4,33.3,28.9
2013-08-18,34.4,32.2,26.7
2013-08-19,33.3,33.9,26.7
2013-08-20,34.4,36.1,26.7
2013-08-21,33.9,32.2,26.1
2013-08-22,33.9,27.2,30.0
2013-08-23,33.9,31.1,26.1
2013-08-24,34.4,31.1,23.3
2013-08-25,33.9,32.8,23.9
2013-08-26,32.2,32.8,20.0
2013-08-27,33.3,33.3,25.0
2013-08-28,31.1,33.3,25.6
2013-08-29,31.7,34.4,25.0
2013-08-30,32.8,31.7,25.0
2013-08-31,32.2,33.3,25.6
2013-09-01,31.7,26.1,30.6
2013-09-02,32.2,32.2,27.2
2013-09-03,31.7,33.3,25.6
2013-09-04,31.1,33.3,25.0
2013-09-05,33.9,32.8,21.7
2013-09-06,33.9,36.1,19.4
2013-09-07,34.4,33.3,19.4
2013-09-08,32.2,33.9,25.0
2013-09-09,32.8,27.8,27.2
2013-09-10,32.8,19.4,26.1
2013-09-11,32.8,18.3,31.1
2013-09-12,31.7,18.3,34.4
2013-09-13,31.1,23.3,25.6
2013-09-14,32.8,25.6,22.2
2013-09-15,33.9,18.9,25.0
2013-09-16,33.9,21.1,18.3
2013-09-17,31.7,28.3,18.9
2013-09-18,31.7,28.9,18.9
2013-09-19,31.1,20.6,21.7
2013-09-20,31.7,21.7,26.1
2013-09-21,31.7,27.2,21.7
2013-09-22,32.2,26.7,18.3
2013-09-23,32.2,20.6,15.6
2013-09-24,28.3,22.8,16.1
2013-09-25,24.4,25.6,14.4
2013-09-26,27.2,20.0,15.6
2013-09-27,31.7,14.4,18.3
2013-09-28,30.0,18.3,14.4
2013-09-29,31.1,22.2,17.2
2013-09-30,31.7,24.4,13.3
2013-10-01,32.8,21.1,15.6
2013-10-02,32.8,24.4,14.4
2013-10-03,32.2,17.8,11.1
2013-10-04,32.2,10.0,12.2
2013-10-05,32.2,16.7,18.3
2013-10-06,32.2,21.1,21.7
2013-10-07,32.8,23.3,22.2
2013-10-08,28.9,25.0,15.0
2013-10-09,30.6,18.3,12.8
2013-10-10,27.8,14.4,15.0
2013-10-11,30.6,15.0,13.3
2013-10-12,30.6,13.3,13.9
2013-10-13,30.6,16.1,12.8
2013-10-14,30.0,11.1,15.6
2013-10-15,30.6,9.4,18.3
2013-10-16,30.0,13.9,20.0
2013-10-17,31.1,8.3,17.8
2013-10-18,32.2,8.9,17.8
2013-10-19,33.3,16.7,21.1
2013-10-20,33.3,7.2,17.8
2013-10-21,32.8,15.6,17.8
2013-10-22,32.2,18.9,22.2
2013-10-23,32.2,18.3,23.3
2013-10-24,26.7,13.3,21.1
2013-10-25,22.8,22.2,19.4
2013-10-26,27.2,16.7,12.8
2013-10-27,27.8,21.7,15.0
2013-10-28,27.8,12.8,13.3
2013-10-29,29.4,3.9,14.4
2013-10-30,30.0,6.7,13.9
2013-10-31,30.6,14.4,12.2
2013-11-01,30.6,12.8,13.3
2013-11-02,30.6,14.4,13.9
2013-11-03,27.8,19.4,12.2
2013-11-04,25.6,8.3,9.4
2013-11-05,25.6,8.3,8.3
2013-11-06,28.9,11.7,11.1
2013-11-07,30.0,12.8,11.7
2013-11-08,27.8,17.2,12.2
2013-11-09,27.8,12.8,10.6
2013-11-10,28.3,18.3,8.3
2013-11-11,30.0,14.4,12.2
2013-11-12,28.9,11.7,16.1
2013-11-13,27.2,18.3,12.2
2013-11-14,21.1,13.9,12.8
2013-11-15,25.6,17.2,8.9
2013-11-16,25.6,14.4,8.3
2013-11-17,25.0,13.9,8.3
2013-11-18,31.7,13.9,11.7
2013-11-19,30.6,11.7,11.1
2013-11-20,27.2,13.9,10.0
2013-11-21,30.0,7.8,7.2
2013-11-22,29.4,1.1,9.4
2013-11-23,29.4,2.2,9.4
2013-11-24,29.4,2.8,11.1
2013-11-25,25.0,6.7,10.6
2013-11-26,25.6,12.2,10.6
2013-11-27,29.4,15.6,8.9
2013-11-28,22.8,8.3,12.2
2013-11-29,20.0,16.1,12.8
2013-11-30,23.3,13.9,5.6
2013-12-01,23.3,13.3,10.6
2013-12-02,23.9,15.6,12.8
2013-12-03,20.0,11.1,6.7
2013-12-04,26.1,-9.4,5.6
2013-12-05,27.8,-11.1,2.8
2013-12-06,28.9,-12.2,0.0
2013-12-07,30.6,-11.1,-1.7
2013-12-08,30.0,-6.7,-2.8
2013-12-09,29.4,-7.2,-1.7
2013-12-10,30.0,6.7,-2.8
2013-12-11,30.0,2.2,1.1
2013-12-12,29.4,10.0,1.1
2013-12-13,23.3,8.9,3.3
2013-12-14,25.6,7.2,6.7
2013-12-15,29.4,11.1,3.9
2013-12-16,25.6,17.2,6.7
2013-12-17,20.0,15.6,5.0
2013-12-18,24.4,13.3,2.8
2013-12-19,23.3,5.6,4.4
2013-12-20,25.6,-3.3,1.7
2013-12-21,28.3,0.6,5.0
2013-12-22,30.0,2.2,10.6
2013-12-23,30.0,-1.1,10.0
2013-12-24,30.0,10.6,10.0
2013-12-25,30.0,5.6,3.3
2013-12-26,26.1,11.7,3.3
2013-12-27,27.2,14.4,2.8
2013-12-28,26.7,11.7,2.2
2013-12-29,26.7,2.8,6.1
2013-12-30,26.7,8.9,3.3
2013-12-31,18.3,13.9,5.0
2014-01-01,21.7,7.2,7.2
2014-01-02,25.6,6.1,4.4
2014-01-03,27.2,15.6,7.8
2014-01-04,13.3,11.1,8.3
2014-01-05,18.3,-8.9,5.6
2014-01-06,27.8,-4.4,9.4
2014-01-07,26.1,5.6,5.6
2014-01-08,11.1,4.4,7.2
2014-01-09,19.4,5.0,10.0
2014-01-10,23.3,6.1,8.9
2014-01-11,28.3,11.7,13.3
2014-01-12,28.9,11.1,8.9
2014-01-13,22.8,10.6,10.6
2014-01-14,26.7,7.2,11.7
2014-01-15,22.8,16.1,7.8
2014-01-16,16.1,10.0,4.4
2014-01-17,16.1,9.4,3.3
2014-01-18,18.3,15.0,3.3
2014-01-19,15.6,18.3,8.3
2014-01-20,21.1,12.8,8.3
2014-01-21,23.9,18.3,9.4
2014-01-22,23.3,7.2,7.8
2014-01-23,15.0,-0.6,6.7
2014-01-24,18.9,16.1,11.1
2014-01-25,18.3,13.9,12.8
2014-01-26,21.7,12.2,8.9
2014-01-27,19.4,-3.3,8.3
2014-01-28,26.7,-3.9,4.4
2014-01-29,27.8,7.2,6.7
2014-01-30,17.8,8.3,11.1
2014-01-31,13.3,1.1,8.9
2014-02-01,22.8,-3.9,8.3
2014-02-02,25.6,-2.8,8.9
2014-02-03,30.0,1.7,7.2
2014-02-04,29.4,-3.3,5.0
2014-02-05,30.6,-15.0,1.7
2014-02-06,28.3,-16.7,-2.8
2014-02-07,27.2,-2.2,-6.1
2014-02-08,24.4,5.6,-3.9
2014-02-09,25.0,1.1,-2.2
2014-02-10,25.0,1.1,-0.6
2014-02-11,26.7,7.2,6.1
2014-02-12,27.2,6.1,10.0
2014-02-13,27.8,15.6,12.2
2014-02-14,18.3,10.0,11.7
2014-02-15,19.4,13.9,11.7
2014-02-16,22.2,17.8,12.2
2014-02-17,23.9,17.2,9.4
2014-02-18,27.2,14.4,10.6
2014-02-19,28.3,17.2,9.4
2014-02-20,29.4,6.7,7.2
2014-02-21,30.0,8.9,7.2
2014-02-22,29.4,10.6,9.4
2014-02-23,30.0,3.9,6.7
2014-02-24,29.4,12.8,8.9
2014-02-25,28.3,-0.6,7.2
2014-02-26,28.3,6.7,10.6
2014-02-27,25.6,12.8,10.0
2014-02-28,22.2,12.8,6.1
2014-03-01,22.2,-0.6,14.4
2014-03-02,26.1,-4.4,6.1
2014-03-03,28.3,15.0,10.6
2014-03-04,27.8,13.9,15.6
2014-03-05,30.0,11.7,15.0
2014-03-06,29.4,14.4,13.9
2014-03-07,20.0,11.7,11.1
2014-03-08,20.6,12.8,15.6
2014-03-09,23.9,23.3,12.2
2014-03-10,27.2,17.8,13.9
2014-03-11,26.7,13.9,11.7
2014-03-12,28.3,11.7,14.4
2014-03-13,27.8,16.1,17.2
2014-03-14,22.2,16.7,14.4
2014-03-15,25.6,13.3,15.6
2014-03-16,28.3,17.8,16.7
2014-03-17,29.4,20.0,15.0
2014-03-18,26.1,7.8,10.0
2014-03-19,23.9,12.8,12.2
2014-03-20,27.2,19.4,12.2
2014-03-21,28.3,12.8,8.9
2014-03-22,29.4,5.0,12.2
2014-03-23,28.9,14.4,16.1
2014-03-24,28.9,9.4,15.6
2014-03-25,20.6,13.9,20.0
2014-03-26,24.4,20.0,13.3
2014-03-27,18.9,15.0,10.0
2014-03-28,19.4,12.8,13.3
2014-03-29,27.2,18.3,11.1
2014-03-30,26.1,21.7,12.2
2014-03-31,24.4,15.0,11.7
2014-04-01,25.6,15.0,15.0
2014-04-02,28.9,12.2,9.4
2014-04-03,30.6,12.2,13.9
2014-04-04,31.1,12.2,12.8
2014-04-05,29.4,14.4,12.8
2014-04-06,30.6,14.4,11.7
2014-04-07,31.1,14.4,17.2
2014-04-08,32.2,23.3,22.8
2014-04-09,25.0,25.0,18.9
2014-04-10,23.3,19.4,15.6
2014-04-11,27.2,24.4,17.2
2014-04-12,28.3,20.0,18.9
2014-04-13,30.0,14.4,16.7
2014-04-14,30.0,7.2,20.0
2014-04-15,30.6,18.3,20.0
2014-04-16,29.4,15.0,14.4
2014-04-17,25.6,17.2,12.8
2014-04-18,28.3,26.7,11.7
2014-04-19,28.3,20.6,15.0
2014-04-20,24.4,23.9,13.3
2014-04-21,24.4,20.0,16.1
2014-04-22,23.3,25.6,16.7
2014-04-23,26.7,21.7,11.7
2014-04-24,28.3,17.8,11.1
2014-04-25,30.6,23.3,13.3
2014-04-26,31.1,22.2,11.7
2014-04-27,32.2,16.1,12.8
2014-04-28,33.9,13.3,12.8
2014-04-29,33.9,11.7,16.1
2014-04-30,33.3,12.2,23.9
2014-05-01,31.7,17.8,27.2
2014-05-02,32.2,25.6,30.0
2014-05-03,29.4,28.9,22.8
2014-05-04,24.4,29.4,13.9
2014-05-05,28.9,25.6,15.0
2014-05-06,31.7,25.0,16.1
2014-05-07,32.2,18.9,17.2
2014-05-08,32.8,11.7,17.2
2014-05-09,33.3,17.2,13.3
2014-05-10,33.3,17.8,12.8
2014-05-11,32.8,12.2,15.6
2014-05-12,32.2,8.3,19.4
2014-05-13,31.7,12.2,24.4
2014-05-14,32.2,16.1,27.8
2014-05-15,32.2,20.0,31.7
2014-05-16,31.1,16.7,26.7
2014-05-17,27.2,18.9,20.0
2014-05-18,28.9,24.4,20.6
2014-05-19,30.0,25.6,15.0
2014-05-20,30.6,23.3,20.0
2014-05-21,31.1,22.2,21.7
2014-05-22,31.7,21.1,21.1
2014-05-23,32.8,21.1,26.1
2014-05-24,33.9,21.1,20.6
2014-05-25,34.4,22.2,18.9
2014-05-26,34.4,23.9,20.0
2014-05-27,34.4,30.0,19.4
2014-05-28,32.2,30.6,18.3
2014-05-29,33.9,30.0,15.0
2014-05-30,33.3,25.0,17.2
2014-05-31,32.8,26.7,22.8
2014-06-01,32.8,27.8,23.3
2014-06-02,31.7,25.6,22.2
2014-06-03,28.9,32.8,23.9
2014-06-04,29.4,27.8,19.4
2014-06-05,31.1,26.1,21.7
2014-06-06,32.8,27.2,22.8
2014-06-07,33.3,18.9,24.4
2014-06-08,33.3,21.7,23.3
2014-06-09,34.4,22.8,25.0
2014-06-10,33.3,30.0,21.7
2014-06-11,33.3,28.3,21.7
2014-06-12,32.2,23.3,24.4
2014-06-13,32.2,32.2,17.2
2014-06-14,31.1,27.8,16.7
2014-06-15,32.8,25.0,17.8
2014-06-16,33.3,31.1,16.1
2014-06-17,32.8,31.1,15.6
2014-06-18,32.2,28.3,14.4
2014-06-19,31.7,27.2,21.1
2014-06-20,32.2,30.0,25.0
2014-06-21,31.7,30.0,20.0
2014-06-22,33.3,25.6,22.8
2014-06-23,32.8,25.0,25.6
2014-06-24,33.3,25.0,25.0
2014-06-25,34.4,28.9,22.8
2014-06-26,34.4,31.7,24.4
2014-06-27,35.0,26.7,17.8
2014-06-28,33.3,29.4,20.6
2014-06-29,35.0,32.2,21.1
2014-06-30,35.6,30.6,20.6
2014-07-01,33.9,25.0,27.2
2014-07-02,34.4,26.1,36.1
2014-07-03,34.4,29.4,26.1
2014-07-04,33.3,33.9,21.1
2014-07-05,34.4,34.4,24.4
2014-07-06,32.8,35.6,27.2
2014-07-07,32.8,37.2,28.9
2014-07-08,30.0,27.2,27.8
2014-07-09,32.8,28.3,29.4
2014-07-10,32.8,33.9,26.7
2014-07-11,33.3,30.6,27.8
2014-07-12,33.3,27.2,30.0
2014-07-13,33.9,29.4,31.7
2014-07-14,33.3,28.9,21.7
2014-07-15,32.2,25.0,27.8
2014-07-16,32.2,22.2,30.6
2014-07-17,29.4,25.0,30.6
2014-07-18,32.2,30.6,26.1
2014-07-19,33.3,33.9,24.4
2014-07-20,35.0,34.4,29.4
2014-07-21,34.4,34.4,20.6
2014-07-22,35.0,32.8,23.9
2014-07-23,33.9,31.7,22.8
2014-07-24,34.4,35.0,18.9
2014-07-25,33.3,29.4,20.6
2014-07-26,33.9,28.9,23.9
2014-07-27,34.4,28.3,27.2
2014-07-28,32.8,28.9,28.9
2014-07-29,34.4,28.3,31.1
2014-07-30,32.8,17.2,30.6
2014-07-31,33.9,26.1,30.0
2014-08-01,33.9,27.2,31.7
2014-08-02,33.9,28.3,30.0
2014-08-03,35.6,30.6,28.9
2014-08-04,34.4,30.0,31.1
2014-08-05,31.1,30.0,32.2
2014-08-06,32.2,30.6,26.1
2014-08-07,33.3,28.3,26.7
2014-08-08,33.9,28.3,25.6
2014-08-09,32.8,29.4,24.4
2014-08-10,32.2,27.8,27.8
2014-08-11,33.9,29.4,32.2
2014-08-12,33.9,31.7,35.6
2014-08-13,33.9,32.2,24.4
2014-08-14,33.9,30.0,24.4
2014-08-15,32.8,32.2,25.0
2014-08-16,32.8,33.9,25.6
2014-08-17,31.1,33.9,27.8
2014-08-18,34.4,32.8,28.9
2014-08-19,34.4,30.0,31.1
2014-08-20,35.0,31.7,27.8
2014-08-21,35.6,28.9,23.9
2014-08-22,36.1,23.9,25.6
2014-08-23,35.0,24.4,25.6
2014-08-24,35.0,27.8,29.4
2014-08-25,35.6,25.6,25.6
2014-08-26,33.9,26.1,30.6
2014-08-27,33.3,25.6,32.8
2014-08-28,33.9,20.0,30.6
2014-08-29,33.9,26.7,26.7
2014-08-30,34.4,29.4,23.3
2014-08-31,35.0,24.4,21.7
2014-09-01,34.4,26.1,23.9
2014-09-02,34.4,29.4,25.6
2014-09-03,34.4,34.4,22.8
2014-09-04,33.3,27.2,21.1
2014-09-05,33.3,18.9,28.3
2014-09-06,33.9,22.2,30.6
2014-09-07,33.9,28.9,34.4
2014-09-08,32.8,27.8,28.9
2014-09-09,33.3,22.8,23.3
2014-09-10,33.3,20.6,23.3
2014-09-11,32.8,17.8,23.9
2014-09-12,32.2,7.8,22.8
2014-09-13,31.1,22.8,28.9
2014-09-14,32.8,28.9,30.6
2014-09-15,32.2,21.7,30.0
2014-09-16,33.3,32.2,31.1
2014-09-17,33.3,32.2,21.7
2014-09-18,33.3,31.1,23.3
2014-09-19,32.8,29.4,22.2
2014-09-20,27.8,26.7,26.1
2014-09-21,26.7,22.2,32.8
2014-09-22,30.0,25.0,29.4
2014-09-23,29.4,27.2,21.1
2014-09-24,30.0,28.9,18.9
2014-09-25,30.6,30.6,17.8
2014-09-26,32.2,30.6,21.7
2014-09-27,32.8,29.4,21.7
2014-09-28,33.3,24.4,20.0
2014-09-29,33.3,20.0,23.9
2014-09-30,31.7,20.6,15.6
2014-10-01,31.1,17.2,18.3
2014-10-02,32.2,18.9,18.3
2014-10-03,32.8,13.9,20.0
2014-10-04,33.3,23.3,25.6
2014-10-05,30.0,23.9,26.7
2014-10-06,26.7,25.6,27.8
2014-10-07,28.9,25.0,27.8
2014-10-08,29.4,24.4,26.7
2014-10-09,31.7,16.7,22.2
2014-10-10,32.2,13.9,22.2
2014-10-11,32.2,21.1,20.0
2014-10-12,32.2,16.1,20.6
2014-10-13,32.2,18.3,16.7
2014-10-14,32.2,24.4,21.1
2014-10-15,31.1,21.1,15.6
2014-10-16,31.1,21.1,14.4
2014-10-17,28.3,17.2,20.0
2014-10-18,28.3,19.4,15.0
2014-10-19,28.3,24.4,21.1
2014-10-20,28.9,23.9,22.2
2014-10-21,30.6,25.0,16.1
2014-10-22,28.9,21.1,15.0
2014-10-23,29.4,23.3,13.3
2014-10-24,28.9,26.1,13.9
2014-10-25,28.3,25.6,11.7
2014-10-26,27.2,25.6,17.2
2014-10-27,27.8,18.3,13.9
2014-10-28,29.4,14.4,15.0
2014-10-29,30.0,21.7,13.3
2014-10-30,30.0,17.2,15.0
2014-10-31,30.0,11.7,15.0
2014-11-01,26.1,16.7,13.3
2014-11-02,19.4,18.9,10.6
2014-11-03,20.0,11.1,11.1
2014-11-04,24.4,14.4,12.2
2014-11-05,26.1,17.2,15.0
2014-11-06,28.3,17.8,15.0
2014-11-07,28.9,21.1,14.4
2014-11-08,27.8,16.1,12.8
2014-11-09,26.7,18.3,13.9
2014-11-10,17.8,16.1,12.2
2014-11-11,24.4,-7.2,13.3
2014-11-12,25.6,-12.2,7.2
2014-11-13,27.2,-11.7,3.9
2014-11-14,27.2,-2.8,2.2
2014-11-15,21.7,-3.9,6.7
2014-11-16,25.6,2.8,5.6
2014-11-17,28.9,3.9,7.2
2014-11-18,29.4,11.1,7.8
2014-11-19,13.3,8.3,5.6
2014-11-20,16.1,10.0,9.4
2014-11-21,21.1,13.3,7.2
2014-11-22,21.7,8.9,12.2
2014-11-23,25.6,8.3,11.1
2014-11-24,29.4,6.7,10.6
2014-11-25,29.4,10.6,13.9
2014-11-26,28.3,9.4,16.1
2014-11-27,15.6,18.3,15.6
2014-11-28,21.7,17.2,13.3
2014-11-29,17.2,20.6,12.2
2014-11-30,22.8,15.0,5.0
2014-12-01,25.6,2.8,5.0
2014-12-02,27.2,17.2,4.4
2014-12-03,25.6,10.6,2.8
2014-12-04,27.8,8.9,8.9
2014-12-05,27.8,16.1,5.0
2014-12-06,27.2,7.2,7.8
2014-12-07,27.8,15.6,12.8
2014-12-08,21.7,13.9,8.9
2014-12-09,21.7,7.8,10.6
2014-12-10,18.3,15.6,13.9
2014-12-11,18.9,16.1,13.9
2014-12-12,18.9,16.7,16.1
2014-12-13,15.0,13.9,10.6
2014-12-14,21.1,6.7,7.2
2014-12-15,22.2,8.3,10.6
2014-12-16,22.8,2.8,9.4
2014-12-17,23.3,5.6,8.3
2014-12-18,25.0,7.2,7.8
2014-12-19,21.7,8.3,10.0
2014-12-20,23.9,10.6,10.0
2014-12-21,26.1,12.8,13.3
2014-12-22,25.0,9.4,12.2
2014-12-23,26.7,3.3,11.7
2014-12-24,28.9,5.6,11.1
2014-12-25,28.3,3.3,6.7
2014-12-26,21.7,-3.9,7.8
2014-12-27,21.7,-2.2,7.8
2014-12-28,26.1,-0.6,6.1
2014-12-29,27.8,-6.1,6.7
2014-12-30,27.2,-12.2,6.1
2014-12-31,27.8,-0.6,1.1
2015-01-01,21.7,2.2,4.4
2015-01-02,25.6,3.9,4.4
2015-01-03,27.2,-2.2,5.0
2015-01-04,30.0,-4.4,4.4
2015-01-05,29.4,15.0,11.1
2015-01-06,25.0,12.8,13.3
2015-01-07,26.7,3.9,7.8
2015-01-08,21.1,8.3,12.8
2015-01-09,17.8,-2.2,5.6
2015-01-10,17.8,7.2,8.9
2015-01-11,19.4,5.6,5.0
2015-01-12,27.8,1.7,6.7
2015-01-13,24.4,2.2,8.3
2015-01-14,26.1,5.0,10.6
2015-01-15,18.9,10.0,9.4
2015-01-16,18.3,13.3,7.8
2015-01-17,20.6,13.9,12.2
2015-01-18,24.4,17.2,14.4
2015-01-19,22.2,15.6,11.1
2015-01-20,22.2,8.3,10.0
2015-01-21,21.7,2.2,9.4
2015-01-22,26.7,5.0,8.9
2015-01-23,26.7,11.7,7.8
2015-01-24,26.1,13.3,7.8
2015-01-25,19.4,17.8,16.1
2015-01-26,18.9,23.9,11.1
2015-01-27,20.6,22.2,14.4
2015-01-28,19.4,16.1,8.9
2015-01-29,17.8,11.7,12.2
2015-01-30,22.2,9.4,11.1
2015-01-31,22.8,6.7,11.7
2015-02-01,23.3,3.3,7.2
2015-02-02,25.0,13.9,7.2
2015-02-03,22.8,18.3,13.9
2015-02-04,21.7,11.1,9.4
2015-02-05,24.4,13.3,11.1
2015-02-06,20.6,17.2,11.7
2015-02-07,20.6,21.7,13.3
2015-02-08,22.8,20.0,13.3
2015-02-09,25.0,19.4,13.9
2015-02-10,21.1,15.6,10.6
2015-02-11,20.0,11.1,11.7
2015-02-12,20.6,16.1,12.2
2015-02-13,20.6,17.8,16.1
2015-02-14,17.2,13.9,13.3
2015-02-15,17.8,7.2,15.0
2015-02-16,23.9,3.3,17.8
2015-02-17,24.4,6.1,16.1
2015-02-18,23.3,10.6,17.8
2015-02-19,17.2,19.4,12.2
2015-02-20,17.2,12.8,13.3
2015-02-21,16.1,2.2,12.8
2015-02-22,24.4,-6.1,15.0
2015-02-23,27.8,-7.2,12.8
2015-02-24,27.8,8.9,13.9
2015-02-25,25.0,9.4,13.9
2015-02-26,27.2,-0.6,9.4
2015-02-27,20.0,-6.7,10.6
2015-02-28,15.0,-0.6,10.6
2015-03-01,26.1,-2.2,13.3
2015-03-02,29.4,5.0,13.3
2015-03-03,29.4,6.7,12.2
2015-03-04,28.9,-5.6,11.7
2015-03-05,30.0,5.6,15.0
2015-03-06,29.4,11.7,15.0
2015-03-07,28.3,13.3,17.8
2015-03-08,24.4,11.1,18.9
2015-03-09,26.7,16.7,20.6
2015-03-10,28.3,18.3,19.4
2015-03-11,30.6,18.3,16.7
2015-03-12,30.6,20.6,13.3
2015-03-13,30.6,16.7,18.9
2015-03-14,29.4,18.9,18.3
2015-03-15,30.0,26.1,12.8
2015-03-16,30.6,26.7,15.6
2015-03-17,30.6,14.4,17.8
2015-03-18,29.4,17.8,13.3
2015-03-19,31.1,14.4,16.7
2015-03-20,30.0,20.0,17.2
2015-03-21,30.0,22.2,17.8
2015-03-22,31.1,22.2,14.4
2015-03-23,28.3,20.0,12.2
2015-03-24,28.3,17.8,11.7
2015-03-25,27.2,11.7,12.8
2015-03-26,28.3,17.8,13.9
2015-03-27,30.6,23.3,21.1
2015-03-28,30.6,26.7,20.0
2015-03-29,20.0,20.6,15.6
2015-03-30,23.3,23.9,19.4
2015-03-31,25.0,26.7,18.3
2015-04-01,27.8,21.1,11.1
2015-04-02,28.9,13.9,11.7
2015-04-03,29.4,10.0,12.8
2015-04-04,30.0,16.7,8.9
2015-04-05,29.4,24.4,12.8
2015-04-06,30.6,22.8,13.9
2015-04-07,31.1,17.8,12.8
2015-04-08,31.1,15.0,15.0
2015-04-09,30.6,12.8,13.9
2015-04-10,31.7,17.8,17.2
2015-04-11,31.7,21.7,15.0
2015-04-12,32.2,20.6,11.7
2015-04-13,31.7,20.0,13.3
2015-04-14,32.2,24.4,11.7
2015-04-15,32.2,20.0,10.0
2015-04-16,32.2,6.1,14.4
2015-04-17,31.7,8.9,21.1
2015-04-18,30.6,12.8,21.7
2015-04-19,31.7,12.2,22.8
2015-04-20,32.2,13.3,23.3
2015-04-21,29.4,20.6,26.1
2015-04-22,30.6,20.0,15.6
2015-04-23,31.7,21.1,14.4
2015-04-24,30.0,18.3,10.6
2015-04-25,31.7,19.4,11.7
2015-04-26,32.2,14.4,15.6
2015-04-27,31.7,9.4,14.4
2015-04-28,33.9,15.6,26.7
2015-04-29,27.2,23.9,17.2
2015-04-30,30.0,26.7,16.7
2015-05-01,26.1,17.2,20.0
2015-05-02,27.8,23.9,20.6
2015-05-03,27.8,23.9,19.4
2015-05-04,28.9,15.0,22.8
2015-05-05,27.2,12.2,17.2
2015-05-06,28.3,16.7,16.1
2015-05-07,30.6,16.1,16.1
2015-05-08,31.7,9.4,20.6
2015-05-09,31.7,8.9,25.0
2015-05-10,32.8,9.4,26.7
2015-05-11,32.8,13.9,20.0
2015-05-12,32.8,21.1,14.4
2015-05-13,32.8,17.8,12.2
2015-05-14,32.8,23.3,15.6
2015-05-15,32.8,20.0,20.0
2015-05-16,32.8,17.8,15.6
2015-05-17,32.8,21.1,13.3
2015-05-18,32.8,12.8,20.0
2015-05-19,32.2,9.4,24.4
2015-05-20,32.2,7.8,16.7
2015-05-21,33.3,12.8,22.8
2015-05-22,33.3,11.1,22.2
2015-05-23,35.0,14.4,14.4
2015-05-24,33.9,16.7,16.1
2015-05-25,32.8,18.9,17.8
2015-05-26,33.9,21.1,17.8
2015-05-27,33.9,23.9,20.0
2015-05-28,32.2,23.9,25.0
2015-05-29,31.7,19.4,27.8
2015-05-30,31.1,21.7,26.1
2015-05-31,33.3,27.8,23.9
2015-06-01,34.4,28.3,27.2
2015-06-02,33.3,31.7,16.1
2015-06-03,27.8,25.0,15.6
2015-06-04,30.0,25.6,17.2
2015-06-05,32.8,22.8,22.2
2015-06-06,31.7,25.6,27.2
2015-06-07,29.4,25.0,29.4
2015-06-08,32.8,27.8,31.1
2015-06-09,32.8,31.1,31.1
2015-06-10,32.2,26.7,30.0
2015-06-11,30.6,22.8,24.4
2015-06-12,31.7,23.3,24.4
2015-06-13,32.8,29.4,21.7
2015-06-14,32.8,28.9,22.8
2015-06-15,32.8,23.9,27.8
2015-06-16,33.9,25.0,30.0
2015-06-17,34.4,27.8,23.3
2015-06-18,34.4,26.7,25.0
2015-06-19,35.6,34.4,26.1
2015-06-20,34.4,29.4,22.8
2015-06-21,35.0,33.9,25.0
2015-06-22,35.0,29.4,26.7
2015-06-23,35.6,29.4,24.4
2015-06-24,34.4,28.9,27.2
2015-06-25,34.4,28.3,28.3
2015-06-26,33.9,27.2,31.7
2015-06-27,33.3,31.1,32.8
2015-06-28,32.2,30.0,31.7
2015-06-29,32.8,31.1,28.3
2015-06-30,31.1,33.3,30.6
2015-07-01,34.4,31.7,30.6
2015-07-02,34.4,28.9,33.3
2015-07-03,35.0,28.3,34.4
2015-07-04,34.4,34.4,32.8
2015-07-05,33.9,30.6,33.3
2015-07-06,33.9,21.1,34.4
2015-07-07,33.3,21.1,31.1
2015-07-08,33.3,18.3,29.4
2015-07-09,33.9,23.9,30.6
2015-07-10,34.4,28.9,28.3
2015-07-11,34.4,30.6,25.6
2015-07-12,34.4,33.3,20.6
2015-07-13,32.2,30.0,26.7
2015-07-14,33.3,32.8,26.1
2015-07-15,31.1,30.0,26.7
2015-07-16,30.0,30.6,26.7
2015-07-17,31.7,33.9,25.0
2015-07-18,29.4,29.4,29.4
2015-07-19,32.2,27.2,34.4
2015-07-20,31.1,29.4,34.4
2015-07-21,32.8,25.6,28.3
2015-07-22,32.8,29.4,22.8
2015-07-23,32.8,33.9,20.6
2015-07-24,32.8,33.3,25.0
2015-07-25,28.3,32.8,26.7
2015-07-26,27.8,33.9,19.4
2015-07-27,30.0,34.4,21.1
2015-07-28,30.6,30.6,23.3
2015-07-29,31.7,30.0,28.9
2015-07-30,28.9,32.2,33.9
2015-07-31,31.7,32.2,37.8
2015-08-01,31.1,34.4,37.2
2015-08-02,28.9,32.2,35.0
2015-08-03,30.6,28.3,25.0
2015-08-04,29.4,32.2,27.2
2015-08-05,33.3,33.9,26.1
2015-08-06,35.0,34.4,23.9
2015-08-07,32.8,32.8,24.4
2015-08-08,33.3,30.6,28.9
2015-08-09,31.1,30.0,26.1
2015-08-10,33.9,30.0,28.3
2015-08-11,33.9,28.3,28.9
2015-08-12,31.7,32.8,31.1
2015-08-13,32.2,32.8,31.1
2015-08-14,32.2,33.3,28.9
2015-08-15,32.2,35.6,21.7
2015-08-16,33.9,28.9,23.3
2015-08-17,33.9,26.1,26.7
2015-08-18,33.3,25.0,29.4
2015-08-19,35.0,21.1,33.9
2015-08-20,35.0,30.0,34.4
2015-08-21,33.3,34.4,25.0
2015-08-22,34.4,31.1,24.4
2015-08-23,35.6,23.3,29.4
2015-08-24,34.4,31.7,30.0
2015-08-25,33.9,35.0,26.1
2015-08-26,34.4,33.3,27.8
2015-08-27,33.3,29.4,30.6
2015-08-28,28.3,30.6,30.6
2015-08-29,32.2,31.7,26.1
2015-08-30,34.4,34.4,21.7
2015-08-31,30.6,30.0,22.8
2015-09-01,29.4,32.8,23.3
2015-09-02,33.3,32.8,21.1
2015-09-03,35.0,27.8,18.9
2015-09-04,33.9,30.0,18.9
2015-09-05,32.2,31.7,18.3
2015-09-06,32.2,29.4,13.9
2015-09-07,32.8,27.8,22.8
2015-09-08,30.6,27.2,25.6
2015-09-09,32.8,30.0,25.6
2015-09-10,34.4,31.7,28.3
2015-09-11,32.8,24.4,32.8
2015-09-12,33.3,28.9,29.4
2015-09-13,31.7,32.2,21.7
2015-09-14,31.7,31.7,16.1
2015-09-15,32.2,30.0,16.1
2015-09-16,31.1,30.6,20.6
2015-09-17,29.4,25.6,19.4
2015-09-18,29.4,22.8,22.8
2015-09-19,29.4,23.9,24.4
2015-09-20,32.2,27.2,24.4
2015-09-21,32.8,30.6,18.3
2015-09-22,32.8,27.2,20.0
2015-09-23,32.2,27.2,22.2
2015-09-24,32.8,29.4,23.9
2015-09-25,31.1,27.8,16.7
2015-09-26,32.2,27.2,18.9
2015-09-27,31.7,32.2,20.0
2015-09-28,31.1,24.4,26.7
2015-09-29,30.6,22.2,26.7
2015-09-30,30.6,28.3,21.1
2015-10-01,32.2,26.1,20.6
2015-10-02,32.2,19.4,22.8
2015-10-03,32.2,15.0,15.6
2015-10-04,28.3,12.2,19.4
2015-10-05,28.3,19.4,26.1
2015-10-06,28.3,15.6,27.8
2015-10-07,30.0,23.3,23.3
2015-10-08,31.1,24.4,17.2
2015-10-09,31.1,21.1,22.8
2015-10-10,31.7,28.3,20.0
2015-10-11,30.6,30.0,20.0
2015-10-12,28.9,23.3,18.9
2015-10-13,29.4,28.3,20.6
2015-10-14,28.3,27.2,20.6
2015-10-15,31.1,19.4,20.0
2015-10-16,31.1,20.0,25.6
2015-10-17,29.4,23.3,22.2
2015-10-18,30.0,25.0,18.3
2015-10-19,28.9,22.2,16.1
2015-10-20,26.7,22.2,16.1
2015-10-21,29.4,16.1,18.3
2015-10-22,29.4,8.9,17.2
2015-10-23,30.0,16.1,17.2
2015-10-24,30.6,17.8,15.6
2015-10-25,30.0,19.4,20.6
2015-10-26,30.6,17.8,14.4
2015-10-27,29.4,16.1,15.0
2015-10-28,25.6,15.0,14.4
2015-10-29,28.3,13.9,13.3
2015-10-30,30.0,15.0,16.7
2015-10-31,30.0,21.1,15.6
2015-11-01,30.6,21.1,16.1
2015-11-02,32.2,20.0,15.0
2015-11-03,31.7,22.8,13.3
2015-11-04,32.2,15.6,12.2
2015-11-05,32.2,9.4,10.0
2015-11-06,31.7,7.2,10.6
2015-11-07,31.7,10.6,16.1
2015-11-08,32.2,16.7,10.6
2015-11-09,31.7,15.0,11.7
2015-11-10,31.1,15.6,11.1
2015-11-11,29.4,11.1,8.3
2015-11-12,30.0,8.9,11.1
2015-11-13,31.1,13.3,10.6
2015-11-14,29.4,17.2,13.3
2015-11-15,26.7,16.1,14.4
2015-11-16,24.4,10.0,7.8
2015-11-17,29.4,10.6,10.6
2015-11-18,28.3,12.2,12.8
2015-11-19,30.6,7.8,9.4
2015-11-20,29.4,8.3,7.2
2015-11-21,28.9,3.3,10.6
2015-11-22,27.8,13.3,9.4
2015-11-23,27.2,14.4,6.1
2015-11-24,21.7,17.2,5.6
2015-11-25,23.9,8.3,5.0
2015-11-26,27.2,-2.2,7.2
2015-11-27,27.2,-7.8,10.0
2015-11-28,28.3,-3.9,11.1
2015-11-29,27.2,-0.6,8.3
2015-11-30,27.8,2.8,5.0
2015-12-01,28.3,6.1,2.8
2015-12-02,30.0,9.4,6.7
2015-12-03,30.0,8.9,5.6
2015-12-04,23.9,12.2,8.9
2015-12-05,22.2,9.4,8.9
2015-12-06,27.2,9.4,9.4
2015-12-07,27.2,10.6,12.2
2015-12-08,24.4,18.3,15.6
2015-12-09,25.6,17.2,15.0
2015-12-10,25.6,14.4,12.8
2015-12-11,25.6,14.4,10.6
2015-12-12,27.2,3.9,6.7
2015-12-13,28.9,6.7,8.9
2015-12-14,28.3,7.2,5.6
2015-12-15,27.8,0.0,5.0
2015-12-16,29.4,2.8,4.4
2015-12-17,30.0,-3.9,6.1
2015-12-18,29.4,4.4,11.1
2015-12-19,22.8,10.0,8.9
2015-12-20,21.7,9.4,7.8
2015-12-21,25.0,5.6,7.2
2015-12-22,27.8,8.9,10.0
2015-12-23,28.9,1.1,6.7
2015-12-24,30.0,3.9,5.0
2015-12-25,30.0,-1.1,3.9
2015-12-26,30.0,-2.2,4.4
2015-12-27,30.0,-2.8,3.3
2015-12-28,29.4,-1.7,3.3
2015-12-29,30.0,-3.3,3.3
2015-12-30,30.6,0.0,2.8
2015-12-31,30.6,-1.1,6.1
2016-01-01,30.0,3.9,2.8
2016-01-02,28.9,7.2,2.8
2016-01-03,19.4,7.8,3.3
2016-01-04,19.4,6.1,-1.7
2016-01-05,19.4,12.2,1.1
2016-01-06,21.7,8.3,2.8
2016-01-07,21.1,6.7,4.4
2016-01-08,20.0,1.1,6.7
2016-01-09,25.6,-1.7,7.2
2016-01-10,26.1,0.0,6.1
2016-01-11,23.3,1.1,10.0
2016-01-12,23.3,6.1,6.1
2016-01-13,20.0,7.2,8.3
2016-01-14,16.7,7.8,7.8
2016-01-15,20.6,3.9,6.1
2016-01-16,23.3,0.0,8.9
2016-01-17,26.1,1.1,10.6
2016-01-18,22.8,6.1,7.8
2016-01-19,16.1,7.2,11.1
2016-01-20,16.1,11.1,7.2
2016-01-21,20.0,7.8,9.4
2016-01-22,21.7,10.6,11.1
2016-01-23,22.8,14.4,13.3
2016-01-24,14.4,9.4,9.4
2016-01-25,15.0,6.1,8.3
2016-01-26,21.7,6.1,13.3
2016-01-27,25.6,12.2,11.1
2016-01-28,20.6,13.9,12.2
2016-01-29,20.6,16.7,13.3
2016-01-30,17.8,13.3,11.1
2016-01-31,21.1,3.9,5.0
2016-02-01,22.8,-0.6,5.0
2016-02-02,27.8,-1.7,7.2
2016-02-03,28.3,0.0,8.3
2016-02-04,29.4,1.1,7.8
2016-02-05,29.4,5.6,11.7
2016-02-06,17.2,8.9,12.8
2016-02-07,20.6,9.4,10.0
2016-02-08,13.9,7.2,15.0
2016-02-09,19.4,14.4,16.7
2016-02-10,19.4,20.6,15.6
2016-02-11,16.1,15.6,15.6
2016-02-12,20.0,11.7,12.8
2016-02-13,23.3,17.2,11.7
2016-02-14,22.8,12.2,10.0
2016-02-15,22.8,16.1,12.8
2016-02-16,22.8,15.6,13.9
2016-02-17,25.0,13.9,11.7
2016-02-18,23.9,21.7,17.2
2016-02-19,23.9,15.6,8.3
2016-02-20,24.4,17.8,9.4
2016-02-21,25.0,8.3,10.6
2016-02-22,25.0,8.9,9.4
2016-02-23,27.2,7.8,10.0
2016-02-24,27.8,11.7,13.9
2016-02-25,27.8,8.3,16.1
2016-02-26,18.9,16.1,17.2
2016-02-27,18.9,18.9,13.9
2016-02-28,18.9,17.8,13.9
2016-02-29,22.8,16.7,11.7
2016-03-01,24.4,12.8,11.1
2016-03-02,26.7,15.6,13.9
2016-03-03,26.7,15.0,12.8
2016-03-04,26.7,17.8,15.6
2016-03-05,27.2,14.4,15.0
2016-03-06,24.4,21.7,15.6
2016-03-07,25.0,13.9,12.2
2016-03-08,25.6,11.7,11.1
2016-03-09,25.6,12.8,7.8
2016-03-10,27.8,18.3,11.7
2016-03-11,29.4,22.2,11.7
2016-03-12,28.9,21.7,10.6
2016-03-13,30.0,18.3,7.2
2016-03-14,30.0,18.3,10.6
2016-03-15,28.9,8.3,7.2
2016-03-16,30.0,7.8,7.2
2016-03-17,30.6,2.8,12.2
2016-03-18,31.1,0.0,14.4
2016-03-19,28.9,4.4,15.0
2016-03-20,25.0,12.2,18.3
2016-03-21,26.7,23.3,12.8
2016-03-22,17.2,22.2,10.6
2016-03-23,23.9,14.4,12.2
2016-03-24,27.8,9.4,11.1
2016-03-25,29.4,9.4,11.1
2016-03-26,29.4,5.0,12.2
2016-03-27,31.1,12.8,13.3
2016-03-28,30.0,18.3,10.0
2016-03-29,25.6,14.4,12.8
2016-03-30,27.2,7.8,17.2
2016-04-01,30.6,12.8,21.7
2016-04-02,31.7,17.8,17.8
2016-04-03,27.2,21.7,19.4
2016-04-04,25.0,22.2,20.6
2016-04-05,27.2,17.2,13.9
2016-04-06,28.3,23.3,14.4
2016-04-07,27.2,19.4,22.8
2016-04-08,26.7,19.4,29.4
2016-04-09,27.8,23.9,26.7
2016-04-10,27.8,17.8,18.9
2016-04-11,27.8,14.4,15.0
2016-04-12,28.3,22.8,15.0
2016-04-13,29.4,22.8,13.9
2016-04-14,30.6,24.4,13.9
2016-04-15,30.6,18.9,11.1
2016-04-16,27.2,6.7,14.4
2016-04-17,27.8,5.6,20.6
2016-04-18,27.8,11.1,26.1
2016-04-19,28.9,12.2,30.6
2016-04-20,28.9,15.6,29.4
2016-04-21,28.3,20.6,25.6
2016-04-22,29.4,23.9,22.2
2016-04-23,30.6,25.0,16.7
2016-04-24,30.0,18.3,15.6
2016-04-25,31.7,20.6,12.2
2016-04-26,31.1,15.6,15.6
2016-04-27,31.7,12.8,13.3
2016-04-28,31.7,7.2,14.4
2016-04-29,32.8,3.3,15.6
2016-04-30,33.9,3.3,13.9
2016-05-01,31.1,7.2,20.0
2016-05-02,32.8,17.8,26.1
2016-05-03,35.6,21.7,28.3
2016-05-04,35.6,24.4,21.1
2016-05-05,23.3,26.7,15.6
2016-05-06,27.2,26.7,20.6
2016-05-07,25.6,18.9,26.1
2016-05-08,26.7,15.0,27.8
2016-05-09,30.0,20.6,16.1
2016-05-10,30.6,21.7,19.4
2016-05-11,31.1,16.1,24.4
2016-05-12,31.1,21.1,27.2
2016-05-13,30.0,18.3,26.7
2016-05-14,31.7,11.7,29.4
2016-05-15,32.2,12.2,12.8
2016-05-16,32.2,10.6,12.8
2016-05-17,32.8,9.4,15.6
2016-05-18,31.7,18.3,22.2
2016-05-19,30.6,23.3,21.7
2016-05-20,31.1,25.0,12.8
2016-05-21,31.7,26.1,17.8
2016-05-22,31.7,23.3,12.8
2016-05-23,31.1,20.0,17.2
2016-05-24,31.1,22.2,18.9
2016-05-25,32.8,23.3,20.6
2016-05-26,31.7,19.4,17.8
2016-05-27,31.7,18.9,15.0
2016-05-28,31.7,22.2,15.6
2016-05-29,31.7,23.9,21.1
2016-05-30,32.8,24.4,19.4
2016-05-31,32.8,18.9,23.3
2016-06-01,32.2,23.9,29.4
2016-06-02,33.9,27.8,24.4
2016-06-03,34.4,27.2,20.0
2016-06-04,34.4,28.3,29.4
2016-06-05,34.4,28.9,34.4
2016-06-06,32.2,28.9,34.4
2016-06-07,28.3,25.6,30.6
2016-06-08,29.4,28.9,29.4
2016-06-09,27.8,34.4,20.6
2016-06-10,27.8,33.9,14.4
2016-06-11,27.8,32.8,16.1
2016-06-12,31.7,31.1,17.8
2016-06-13,32.8,25.0,22.2
2016-06-14,33.3,29.4,16.1
2016-06-15,33.9,31.7,17.8
2016-06-16,32.8,33.3,16.1
2016-06-17,31.1,31.1,18.3
2016-06-18,28.9,33.3,19.4
2016-06-19,32.2,34.4,18.3
2016-06-20,30.6,27.2,23.3
2016-06-21,30.0,37.2,25.0
2016-06-22,31.7,32.8,22.2
2016-06-23,33.9,32.8,23.9
2016-06-24,35.0,30.0,17.2
2016-06-25,35.0,28.9,18.9
2016-06-26,35.0,32.8,23.9
2016-06-27,33.3,32.8,28.9
2016-06-28,33.3,30.0,28.9
2016-06-29,32.8,30.0,24.4
2016-06-30,33.3,26.7,23.3
2016-07-01,31.7,25.0,23.3
2016-07-02,33.9,27.2,26.1
2016-07-03,33.3,32.2,25.6
2016-07-04,34.4,32.2,22.2
2016-07-05,34.4,31.1,18.9
2016-07-06,35.0,33.3,21.1
2016-07-07,35.6,29.4,25.0
2016-07-08,35.6,33.3,21.1
2016-07-09,35.6,35.6,22.2
2016-07-10,35.0,36.1,21.1
2016-07-11,34.4,31.7,21.1
2016-07-12,35.6,32.2,22.2
2016-07-13,34.4,31.1,21.7
2016-07-14,35.0,29.4,23.9
2016-07-15,34.4,31.1,25.0
2016-07-16,34.4,30.6,21.1
2016-07-17,34.4,31.7,22.2
2016-07-18,33.9,30.0,21.1
2016-07-19,33.3,35.6,22.8
2016-07-20,30.6,35.0,23.9
2016-07-21,33.9,35.6,26.7
2016-07-22,31.1,35.0,28.9
2016-07-23,33.3,35.0,19.4
2016-07-24,32.8,31.7,21.7
2016-07-25,32.2,31.7,28.9
2016-07-26,33.3,30.0,28.9
2016-07-27,33.9,31.7,26.7
2016-07-28,34.4,26.7,29.4
2016-07-29,35.0,28.3,32.2
2016-07-30,33.9,30.6,32.2
2016-07-31,33.9,35.0,24.4
2016-08-01,33.9,35.6,22.8
2016-08-02,34.4,31.7,24.4
2016-08-03,35.0,33.9,22.8
2016-08-04,32.8,25.6,25.0
2016-08-05,32.8,21.1,30.0
2016-08-06,33.3,24.4,25.6
2016-08-07,32.2,30.0,21.7
2016-08-08,31.7,32.8,21.7
2016-08-09,28.3,33.9,20.6
2016-08-10,30.0,32.8,19.4
2016-08-11,33.9,30.6,25.0
2016-08-12,33.9,27.8,30.0
2016-08-13,31.7,30.6,34.4
2016-08-14,33.3,31.1,15.6
2016-08-15,32.2,32.8,28.9
2016-08-16,34.4,30.0,28.9
2016-08-17,33.9,31.7,27.8
2016-08-18,33.9,32.2,26.1
2016-08-19,33.9,24.4,35.0
2016-08-20,33.9,23.9,36.1
2016-08-21,34.4,30.6,36.1
2016-08-22,34.4,30.6,25.0
2016-08-23,35.0,32.8,21.7
2016-08-24,35.6,22.8,27.2
2016-08-25,33.3,20.0,15.0
2016-08-26,33.3,24.4,32.8
2016-08-27,34.4,28.3,33.3
2016-08-28,32.2,31.1,26.1
2016-08-29,33.9,29.4,27.8
2016-08-30,32.8,27.8,28.3
2016-08-31,30.6,25.6,21.1
2016-09-01,30.6,27.8,20.0
2016-09-02,29.4,26.7,18.9
2016-09-03,29.4,30.6,17.8
2016-09-04,32.8,28.3,20.0
2016-09-05,33.9,30.6,20.0
2016-09-06,33.9,25.6,20.0
2016-09-07,30.6,26.7,18.9
2016-09-08,31.7,30.6,22.2
2016-09-09,32.8,23.9,22.2
2016-09-10,33.9,26.1,26.7
2016-09-11,32.2,31.1,28.3
2016-09-12,32.8,25.0,21.1
2016-09-13,31.7,17.2,25.0
2016-09-14,31.1,23.3,26.1
2016-09-15,33.3,23.3,25.6
2016-09-16,33.9,23.3,25.6
2016-09-17,33.3,26.1,27.2
2016-09-18,32.8,31.7,15.6
2016-09-19,32.8,32.2,21.7
2016-09-20,32.8,30.0,18.3
2016-09-21,33.3,28.9,21.1
2016-09-22,33.3,24.4,21.7
2016-09-23,33.9,29.4,17.8
2016-09-24,33.9,20.6,15.0
2016-09-25,32.8,20.6,20.0
2016-09-26,33.9,24.4,27.2
2016-09-27,32.8,28.3,31.1
2016-09-28,32.2,26.7,22.2
2016-09-29,31.7,26.7,21.7
2016-09-30,31.7,23.3,19.4
2016-10-01,31.7,26.1,19.4
2016-10-02,33.3,26.7,16.1
2016-10-03,32.8,25.6,15.0
2016-10-04,32.8,18.3,14.4
2016-10-05,32.2,20.0,16.1
2016-10-06,32.2,12.8,15.6
2016-10-07,31.7,18.3,15.0
2016-10-08,28.3,22.2,14.4
2016-10-09,31.7,24.4,18.9
2016-10-10,31.1,27.2,13.9
2016-10-11,31.1,22.8,15.0
2016-10-12,31.1,16.1,17.2
2016-10-13,31.7,25.6,17.8
2016-10-14,30.6,25.6,14.4
2016-10-15,31.1,28.9,16.1
2016-10-16,31.1,28.3,16.7
2016-10-17,31.7,21.1,14.4
2016-10-18,31.1,18.3,15.6
2016-10-19,31.7,16.7,13.9
2016-10-20,31.1,15.0,15.0
2016-10-21,30.6,23.3,15.6
2016-10-22,30.6,26.1,15.6
2016-10-23,24.4,18.3,16.7
2016-10-24,26.7,24.4,15.6
2016-10-25,27.2,23.3,15.0
2016-10-26,27.8,22.8,15.6
2016-10-27,28.3,26.1,15.0
2016-10-28,28.3,24.4,12.8
2016-10-29,29.4,25.0,18.3
2016-10-30,28.3,17.2,15.6
2016-10-31,28.9,26.1,11.7
2016-11-01,30.0,20.0,11.7
2016-11-02,29.4,18.3,15.6
2016-11-03,28.9,21.7,16.1
2016-11-04,28.3,20.6,17.2
2016-11-05,28.9,20.6,20.0
2016-11-06,28.3,20.6,13.3
2016-11-07,28.3,20.0,15.0
2016-11-08,27.2,18.3,17.2
2016-11-09,28.3,21.1,19.4
2016-11-10,28.3,22.2,17.8
2016-11-11,27.2,14.4,19.4
2016-11-12,26.7,19.4,16.1
2016-11-13,28.3,20.0,16.1
2016-11-14,28.3,20.6,13.3
2016-11-15,25.6,25.0,13.9
2016-11-16,25.6,26.1,13.3
2016-11-17,25.6,12.8,10.0
2016-11-18,26.7,2.8,11.7
2016-11-19,27.2,6.1,10.6
2016-11-20,25.6,13.3,12.8
2016-11-21,21.1,18.3,11.1
2016-11-22,21.7,18.3,12.8
2016-11-23,26.1,8.9,12.2
2016-11-24,27.8,11.7,10.6
2016-11-25,29.4,13.3,10.6
2016-11-26,29.4,14.4,10.0
2016-11-27,26.7,9.4,11.7
2016-11-28,26.7,7.2,7.8
2016-11-29,25.0,3.3,10.0
2016-11-30,28.9,5.0,10.0
2016-12-01,28.3,5.6,8.9
2016-12-02,28.3,1.7,6.7
2016-12-03,26.1,5.6,6.7
2016-12-04,27.2,6.7,10.0
2016-12-05,28.3,11.1,7.2
2016-12-06,30.0,-1.7,2.8
2016-12-07,28.3,-5.0,5.0
2016-12-08,27.2,-8.3,3.3
2016-12-09,22.2,2.8,0.0
2016-12-10,15.6,4.4,0.6
2016-12-11,23.9,5.0,5.0
2016-12-12,26.1,5.6,7.2
2016-12-13,28.3,6.7,6.7
2016-12-14,29.4,6.1,3.9
2016-12-15,27.8,1.7,1.1
2016-12-16,26.1,1.1,-1.1
2016-12-17,27.2,-8.9,2.2
2016-12-18,28.9,-2.2,-0.6
2016-12-19,30.6,3.3,2.2
2016-12-20,31.1,9.4,8.3
2016-12-21,27.2,8.3,10.0
2016-12-22,21.1,3.3,2.2
2016-12-23,26.7,10.6,3.3
2016-12-24,28.3,8.9,6.1
2016-12-25,30.0,6.7,3.9
2016-12-26,29.4,5.0,5.6
2016-12-27,29.4,7.8,4.4
2016-12-28,27.8,7.8,7.2
2016-12-29,28.9,4.4,4.4
2016-12-30,28.9,14.4,3.9
2016-12-31,16.7,4.4,5.6
2017-01-01,24.4,7.8,1.7
2017-01-02,28.9,5.6,2.8
2017-01-03,30.0,-6.1,1.1
2017-01-04,28.9,-9.4,1.1
2017-01-05,26.7,-12.2,0.6
2017-01-06,25.6,-5.6,0.6
2017-01-07,26.7,-2.2,1.7
2017-01-08,21.7,11.1,-1.1
2017-01-09,10.6,16.7,2.2
2017-01-10,20.6,11.7,3.3
2017-01-11,21.7,8.9,3.3
2017-01-12,25.6,2.2,0.0
2017-01-13,27.8,6.1,2.2
2017-01-14,26.1,6.7,-1.1
2017-01-15,26.1,3.3,-1.7
2017-01-16,27.2,6.1,1.1
2017-01-17,27.8,9.4,-1.1
2017-01-18,23.9,12.2,5.0
2017-01-19,27.2,10.0,7.2
2017-01-20,27.2,8.3,10.6
2017-01-21,28.3,6.7,6.7
2017-01-22,27.8,8.9,7.2
2017-01-23,27.2,12.2,9.4
2017-01-24,22.2,4.4,8.3
2017-01-25,23.3,-0.6,2.8
2017-01-26,25.0,-0.6,6.1
2017-01-27,26.1,8.3,7.8
2017-01-28,26.1,10.6,9.4
2017-01-29,16.1,16.1,6.7
2017-01-30,16.1,17.8,7.2
2017-01-31,18.3,14.4,6.7
2017-02-01,22.2,12.8,6.7
2017-02-02,26.1,-5.0,3.3
2017-02-03,26.7,-3.3,3.9
2017-02-04,26.7,14.4,7.2
2017-02-05,27.2,15.0,8.9
2017-02-06,26.1,16.7,4.4
2017-02-07,28.9,17.2,5.6
2017-02-08,28.3,13.9,3.3
2017-02-09,27.8,19.4,11.1
2017-02-10,27.8,25.0,14.4
2017-02-11,25.0,17.2,9.4
2017-02-12,27.8,10.0,10.0
2017-02-13,27.8,13.9,10.0
2017-02-14,27.2,12.2,15.0
2017-02-15,27.8,18.3,9.4
2017-02-16,26.7,21.1,8.9
2017-02-17,22.8,18.3,8.9
2017-02-18,25.6,16.7,13.3
2017-02-19,26.1,16.1,8.9
2017-02-20,27.8,18.3,8.9
2017-02-21,29.4,21.1,8.3
2017-02-22,26.1,16.1,9.4
2017-02-23,26.1,5.0,6.7
2017-02-24,24.4,-3.9,6.7
2017-02-25,28.9,3.3,3.9
2017-02-26,27.2,3.9,7.8
2017-02-27,27.2,11.1,5.6
2017-02-28,30.6,4.4,5.6
2017-03-01,30.6,7.8,8.3
2017-03-02,31.1,11.7,8.9
2017-03-03,29.4,16.1,9.4
2017-03-04,26.7,20.6,10.0
2017-03-05,25.6,17.2,7.2
2017-03-06,24.4,11.7,6.1
2017-03-07,26.1,11.1,6.1
2017-03-08,25.0,18.9,8.9
2017-03-09,27.8,21.7,5.0
2017-03-10,29.4,16.1,12.8
2017-03-11,28.3,11.1,14.4
2017-03-12,30.6,16.7,13.3
2017-03-13,30.6,10.0,15.6
2017-03-14,25.6,20.0,12.8
2017-03-15,20.6,25.6,13.3
2017-03-16,17.8,24.4,12.2
2017-03-17,20.0,18.9,11.7
2017-03-18,24.4,26.1,11.1
2017-03-19,26.1,25.6,11.7
2017-03-20,26.1,23.3,12.8
2017-03-21,26.1,17.2,12.2
2017-03-22,27.8,20.6,14.4
2017-03-23,27.8,24.4,12.2
2017-03-24,30.0,15.6,12.8
2017-03-25,27.2,17.2,10.6
2017-03-26,28.9,13.3,11.1
2017-03-27,29.4,17.8,7.8
2017-03-28,29.4,11.7,11.7
2017-03-29,30.0,16.7,13.3
2017-03-30,31.7,18.9,12.8
2017-03-31,31.1,13.3,12.8
2017-04-01,26.7,6.1,13.3
2017-04-02,30.0,18.3,14.4
2017-04-03,32.8,15.6,12.2
2017-04-04,32.8,7.2,12.8
2017-04-05,31.1,13.9,14.4
2017-04-06,31.7,18.9,15.6
2017-04-07,32.8,25.0,16.1
2017-04-08,23.9,25.6,12.2
2017-04-09,25.6,15.6,10.6
2017-04-10,29.4,15.6,12.8
2017-04-11,29.4,19.4,11.7
2017-04-12,31.1,23.9,13.9
2017-04-13,30.0,26.7,15.6
2017-04-14,30.6,25.6,11.1
2017-04-15,30.0,21.1,11.7
2017-04-16,31.1,22.2,14.4
2017-04-17,31.7,23.3,17.2
2017-04-18,31.7,22.8,13.9
2017-04-19,31.7,21.7,16.7
2017-04-20,31.7,16.1,12.8
2017-04-21,31.7,8.9,14.4
2017-04-22,31.7,13.3,20.0
2017-04-23,27.8,20.0,15.0
2017-04-24,28.9,19.4,11.7
2017-04-25,27.8,15.0,10.6
2017-04-26,27.2,15.0,11.1
2017-04-27,31.1,12.8,12.8
2017-04-29,36.1,3.3,14.4
2017-04-30,33.3,17.8,17.2
2017-05-01,33.3,18.9,14.4
2017-05-02,32.2,16.1,11.1
2017-05-03,32.2,17.2,15.6
2017-05-04,33.9,24.4,27.2
2017-05-05,32.2,26.1,27.8
2017-05-06,26.1,30.6,13.9
2017-05-07,26.7,27.8,15.0
2017-05-08,30.0,21.1,17.2
2017-05-09,32.2,16.7,20.6
2017-05-10,33.9,14.4,22.8
2017-05-11,36.1,18.9,22.2
2017-05-12,36.7,26.7,13.3
2017-05-13,36.7,28.9,11.7
2017-05-14,36.7,23.3,11.7
2017-05-15,32.2,26.7,16.1
2017-05-16,35.0,21.7,13.9
2017-05-17,36.1,22.2,12.2
2017-05-18,35.6,8.3,13.3
2017-05-19,34.4,7.2,20.0
2017-05-20,34.4,17.2,22.8
2017-05-21,36.1,17.8,21.7
2017-05-22,35.6,21.1,27.8
2017-05-23,33.3,20.6,32.2
2017-05-24,31.7,28.9,27.2
2017-05-25,31.1,25.0,17.2
2017-05-26,27.8,20.0,22.2
2017-05-27,32.2,18.9,27.2
2017-05-28,33.9,23.3,30.6
2017-05-29,33.9,21.7,27.8
2017-05-30,35.0,25.6,21.7
2017-05-31,35.0,26.7,14.4
2017-06-01,35.6,27.2,22.2
2017-06-02,35.0,25.0,21.1
2017-06-03,35.0,26.7,22.8
2017-06-04,30.6,27.8,18.3
2017-06-05,30.6,28.3,18.3
2017-06-06,27.2,25.0,23.9
2017-06-07,27.8,27.8,28.3
2017-06-08,28.9,28.3,24.4
2017-06-09,30.6,33.3,16.7
2017-06-10,32.8,30.6,16.1
2017-06-11,27.8,28.3,14.4
2017-06-12,32.8,28.3,20.0
2017-06-13,31.7,26.1,14.4
2017-06-14,31.7,28.9,15.6
2017-06-15,32.2,30.0,17.8
2017-06-16,32.2,33.3,15.6
2017-06-17,31.1,29.4,17.2
2017-06-18,32.8,28.3,19.4
2017-06-19,31.7,28.9,25.0
2017-06-20,30.0,35.0,28.9
2017-06-21,32.2,37.8,23.9
2017-06-22,33.3,31.7,22.2
2017-06-23,33.9,26.1,26.1
2017-06-24,34.4,23.9,30.6
2017-06-25,34.4,22.2,35.0
2017-06-26,34.4,30.0,36.1
2017-06-27,32.8,32.2,23.9
2017-06-28,31.7,31.7,22.2
2017-06-29,33.3,27.8,21.1
2017-06-30,33.9,23.9,26.1
2017-07-01,33.9,30.0,28.3
2017-07-02,33.3,31.7,22.8
2017-07-03,33.9,30.6,26.1
2017-07-04,34.4,33.9,23.3
2017-07-05,35.6,32.2,26.7
2017-07-06,35.0,36.1,30.6
2017-07-07,34.4,29.4,29.4
2017-07-08,33.9,32.2,21.1
2017-07-09,32.8,34.4,28.3
2017-07-10,32.8,32.8,26.7
2017-07-11,33.3,35.0,23.9
2017-07-12,33.3,25.6,24.4
2017-07-13,32.2,30.6,26.7
2017-07-14,32.2,31.7,22.8
2017-07-15,32.2,28.3,28.3
2017-07-16,33.9,30.0,25.0
2017-07-17,34.4,35.0,22.2
2017-07-18,32.8,34.4,25.6
2017-07-19,32.2,35.6,27.8
2017-07-20,31.1,32.8,26.1
2017-07-21,31.1,35.0,22.8
2017-07-22,28.3,31.1,26.7
2017-07-23,30.6,31.1,30.6
2017-07-24,30.0,35.0,26.1
2017-07-25,34.4,32.8,28.9
2017-07-26,35.6,27.8,30.0
2017-07-27,35.0,29.4,27.8
2017-07-28,33.9,33.3,23.9
2017-07-29,33.9,27.2,26.1
2017-07-30,33.3,28.9,28.3
2017-07-31,30.6,32.8,28.9
2017-08-01,30.6,31.7,30.6
2017-08-02,32.8,30.0,33.9
2017-08-03,31.1,20.0,37.8
2017-08-04,34.4,28.9,38.3
2017-08-05,35.0,28.3,33.9
2017-08-06,35.0,20.0,30.0
2017-08-07,33.3,18.3,29.4
2017-08-08,33.9,21.7,29.4
2017-08-09,35.0,24.4,31.7
2017-08-10,35.0,24.4,32.8
2017-08-11,33.3,23.9,30.6
2017-08-12,32.8,26.7,27.8
2017-08-13,33.3,29.4,25.6
2017-08-14,33.9,30.0,21.7
2017-08-15,32.8,27.8,22.2
2017-08-16,33.9,25.0,26.1
2017-08-17,33.3,30.0,27.2
2017-08-18,35.0,29.4,25.0
2017-08-19,35.0,33.3,26.1
2017-08-20,33.3,31.7,24.4
2017-08-21,31.1,31.1,25.0
2017-08-22,32.8,26.7,30.6
2017-08-23,34.4,28.9,28.9
2017-08-24,33.9,28.9,27.2
2017-08-25,33.9,31.1,22.2
2017-08-26,33.9,34.4,25.6
2017-08-27,26.7,30.0,30.6
2017-08-28,28.9,31.1,33.9
2017-08-29,30.6,32.2,35.6
2017-08-30,32.2,31.7,29.4
2017-08-31,33.9,26.7,25.0
2017-09-01,35.0,31.1,26.1
2017-09-02,35.0,30.6,31.7
2017-09-03,32.2,36.7,34.4
2017-09-04,31.1,31.1,33.9
2017-09-05,32.8,21.7,31.7
2017-09-07,31.1,27.8,26.7
2017-09-08,33.3,27.8,26.7
2017-09-09,33.9,30.0,22.8
2017-09-10,30.0,31.1,26.1
2017-09-11,24.4,29.4,23.3
2017-09-12,28.9,32.8,30.6
2017-09-13,31.1,30.6,27.8
2017-09-14,31.7,30.0,22.2
2017-09-15,32.8,27.2,22.2
2017-09-16,32.8,22.8,25.0
2017-09-17,32.8,22.8,24.4
2017-09-19,31.1,30.6,15.0
2017-09-20,31.7,25.6,17.8
2017-09-21,32.8,30.0,14.4
2017-09-22,32.8,23.3,16.1
2017-09-23,33.3,15.0,18.9
2017-09-24,32.2,8.9,20.0
2017-09-25,31.7,13.9,21.7
2017-09-26,33.3,17.2,18.3
2017-09-27,33.3,12.8,25.0
2017-09-28,33.9,12.2,28.3
2017-09-29,33.3,16.1,28.9
2017-09-30,29.4,18.3,17.2
2017-10-01,31.1,16.7,16.1
2017-10-02,32.2,10.6,16.7
2017-10-03,32.2,12.8,16.7
2017-10-04,27.8,18.9,20.0
2017-10-05,30.6,20.0,20.0
2017-10-06,27.2,21.7,22.2
2017-10-07,32.2,22.8,21.1
2017-10-08,33.3,16.1,16.1
2017-10-09,32.8,7.2,17.2
2017-10-10,32.8,13.3,18.9
2017-10-11,32.8,21.1,12.8
2017-10-12,32.2,25.0,12.2
2017-10-13,30.0,16.7,12.2
2017-10-14,31.1,15.0,13.9
2017-10-15,31.1,16.1,13.9
2017-10-16,32.2,25.6,18.3
2017-10-17,32.2,23.9,18.3
2017-10-18,27.8,25.0,12.2
2017-10-19,30.0,21.1,16.7
2017-10-20,31.7,24.4,11.7
2017-10-21,31.7,18.3,11.1
2017-10-22,30.0,19.4,14.4
2017-10-23,31.7,16.7,15.0
2017-10-24,31.1,18.3,17.8
2017-10-25,27.8,27.8,21.1
2017-10-26,22.2,20.0,15.0
2017-10-27,23.3,6.1,20.6
2017-10-28,27.2,18.3,22.2
2017-10-29,25.0,23.3,20.0
2017-10-30,20.0,7.2,13.9
2017-10-31,20.0,8.9,16.7
2017-11-01,25.0,22.2,17.8
2017-11-02,27.2,16.1,12.8
2017-11-03,28.3,11.1,11.7
2017-11-04,28.9,18.3,8.9
2017-11-05,28.9,13.9,7.2
2017-11-07,28.9,5.0,8.3
2017-11-08,29.4,4.4,8.3
2017-11-09,29.4,4.4,8.9
2017-11-10,29.4,10.0,11.1
2017-11-11,26.7,16.1,9.4
2017-11-12,29.4,11.7,11.1
2017-11-13,26.1,20.6,12.8
2017-11-14,26.7,18.3,11.7
2017-11-15,28.3,11.1,12.2
2017-11-16,27.2,16.7,7.8
2017-11-17,26.1,17.8,7.8
2017-11-18,27.2,7.8,9.4
2017-11-19,27.2,14.4,10.6
2017-11-20,27.2,20.6,10.6
2017-11-21,27.2,14.4,11.7
2017-11-22,23.3,21.1,14.4
2017-11-23,27.8,20.6,16.1
2017-11-24,21.7,22.2,16.7
2017-11-25,19.4,16.1,11.7
2017-11-26,24.4,18.9,8.9
2017-11-27,25.0,25.0,12.8
2017-11-28,25.0,18.3,10.0
2017-11-29,28.3,9.4,6.1
2017-11-30,28.9,11.7,10.0
2017-12-01,28.3,13.3,6.7
2017-12-02,28.3,15.6,8.3
2017-12-04,27.2,12.8,7.2
2017-12-05,27.2,7.2,5.6
2017-12-06,27.2,3.3,10.0
2017-12-07,27.8,5.0,12.8
2017-12-08,28.3,14.4,11.7
2017-12-09,28.3,15.0,8.3
2017-12-10,16.7,14.4,8.3
2017-12-11,14.4,15.6,7.8
2017-12-12,17.2,18.3,7.8
2017-12-13,22.8,13.9,7.2
2017-12-14,22.8,7.8,8.3
2017-12-15,22.2,13.3,6.1
2017-12-16,24.4,8.9,3.9
2017-12-17,26.1,3.9,7.2
2017-12-18,26.7,12.2,9.4
2017-12-19,28.3,9.4,10.6
2017-12-20,28.9,15.0,9.4
2017-12-21,26.7,10.6,6.7
2017-12-22,28.3,2.2,1.7
2017-12-23,27.8,-0.6,2.8
2017-12-24,27.8,-4.4,3.9
2017-12-25,26.1,-5.0,-0.6
2017-12-27,26.1,10.0,1.7
2017-12-28,27.2,9.4,1.7
2017-12-29,25.6,20.0,11.7
2018-01-01,27.2,-3.3,8.9
2018-01-02,19.4,5.0,6.1
2018-01-03,14.4,8.3,5.0
2018-01-04,12.8,10.6,7.2
2018-01-05,13.3,10.0,7.2
2018-01-06,15.0,8.9,10.0
2018-01-07,16.7,10.0,9.4
2018-01-08,21.1,6.7,6.7
2018-01-09,22.2,17.8,5.6
2018-01-10,25.6,16.1,8.3
2018-01-11,26.1,8.3,8.3
2018-01-12,26.7,7.2,13.3
2018-01-13,26.1,9.4,10.0
2018-01-14,18.3,9.4,14.4
2018-01-15,17.8,3.3,13.9
2018-01-16,21.1,-2.2,12.2
2018-01-17,23.9,10.6,12.8
2018-01-18,21.7,14.4,10.6
2018-01-19,13.3,13.9,7.8
2018-01-20,20.0,9.4,7.8
2018-01-21,20.0,1.1,8.9
2018-01-22,26.1,10.0,8.3
2018-01-23,28.3,6.7,7.8
2018-01-24,26.1,10.6,9.4
2018-01-25,23.9,7.8,8.3
2018-01-26,22.2,5.6,7.2
2018-01-27,25.0,4.4,11.1
2018-01-28,25.0,12.8,11.1
2018-01-29,26.1,12.8,14.4
2018-01-30,23.9,17.8,10.6
2018-01-31,18.3,13.3,9.4
2018-02-01,22.2,-0.6,7.2
2018-02-02,24.4,8.3,8.9
2018-02-03,26.1,13.9,13.9
2018-02-04,23.9,10.0,12.2
2018-02-05,27.2,12.2,14.4
2018-02-06,23.9,10.0,12.2
2018-02-07,27.8,10.0,10.0
2018-02-08,28.3,16.7,13.9
2018-02-09,30.6,12.8,11.1
2018-02-10,28.3,-8.3,8.9
2018-02-11,29.4,1.7,10.0
2018-02-12,29.4,-1.7,7.8
2018-02-13,30.0,15.0,7.8
2018-02-14,30.0,17.2,9.4
2018-02-15,27.8,11.1,6.7
2018-02-16,27.8,5.0,7.8
2018-02-17,28.3,12.2,8.3
2018-02-18,28.3,19.4,11.1
2018-02-19,30.0,1.7,3.3
2018-02-20,30.0,-9.4,2.8
2018-02-21,30.0,-3.3,0.0
2018-02-22,30.6,-0.6,1.7
2018-02-23,30.0,-0.6,2.8
2018-02-24,30.0,3.9,5.0
2018-02-25,29.4,3.9,7.8
2018-02-26,30.6,10.0,5.6
2018-02-27,30.6,11.7,5.6
2018-02-28,28.9,9.4,6.1
2018-03-01,28.9,10.0,6.1
2018-03-02,28.9,19.4,8.3
2018-03-03,28.9,19.4,7.8
2018-03-04,26.1,18.9,10.0
2018-03-05,24.4,6.7,9.4
2018-03-06,25.6,10.0,8.9
2018-03-07,25.6,11.7,13.9
2018-03-08,23.9,17.8,10.6
2018-03-09,18.9,17.2,13.9
2018-03-10,22.8,12.8,11.1
2018-03-11,23.9,10.6,16.1
2018-03-12,27.2,14.4,18.9
2018-03-13,21.7,13.9,19.4
2018-03-14,21.7,18.9,12.8
2018-03-15,20.6,19.4,11.1
2018-03-16,22.8,14.4,12.2
2018-03-17,26.1,16.7,10.6
2018-03-18,27.2,13.9,8.9
2018-03-19,30.0,8.9,10.0
2018-03-20,30.0,12.2,12.8
2018-03-21,28.9,16.7,15.0
2018-03-22,21.1,21.1,11.1
2018-03-23,21.1,19.4,7.8
2018-03-24,24.4,19.4,6.7
2018-03-25,27.2,15.6,5.6
2018-03-26,27.2,12.8,10.6
2018-03-27,30.0,11.1,8.3
2018-03-28,30.0,8.9,11.7
2018-03-29,28.3,8.9,12.2
2018-03-30,29.4,16.7,14.4
2018-03-31,30.0,15.6,12.8
2018-04-01,22.2,7.8,16.1
2018-04-02,31.1,21.1,7.8
2018-04-03,31.7,15.0,10.6
2018-04-04,32.2,16.1,10.6
2018-04-05,30.6,19.4,13.9
2018-04-06,30.6,13.9,11.7
2018-04-07,31.7,7.8,19.4
2018-04-08,28.9,16.7,13.9
2018-04-09,28.3,14.4,11.1
2018-04-10,30.6,22.2,16.7
2018-04-11,29.4,26.7,15.0
2018-04-12,26.7,25.6,13.3
2018-04-13,29.4,15.6,9.4
2018-04-14,30.0,16.1,12.2
2018-04-15,32.2,16.7,13.3
2018-04-16,30.6,18.3,8.9
2018-04-17,21.1,20.6,8.9
2018-04-18,27.8,15.0,11.7
2018-04-19,31.7,18.3,16.1
2018-04-20,30.0,13.9,18.3
2018-04-21,30.6,7.2,17.2
2018-04-22,32.2,18.3,15.6
2018-04-23,32.2,21.1,16.7
2018-04-24,32.2,13.3,21.7
2018-04-25,28.3,18.9,25.0
2018-04-26,27.8,17.8,28.3
2018-04-27,28.3,22.8,28.3
2018-04-28,29.4,25.6,13.3
2018-04-29,28.3,26.7,15.6
2018-04-30,30.6,21.1,15.0
2018-05-01,30.6,18.3,13.3
2018-05-02,30.6,10.6,13.9
2018-05-03,31.1,12.8,22.2
2018-05-04,31.7,21.1,23.9
2018-05-05,32.2,23.3,19.4
2018-05-06,30.6,24.4,22.8
2018-05-07,30.0,26.1,20.6
2018-05-08,32.2,26.7,23.3
2018-05-09,32.2,26.1,25.6
2018-05-10,32.8,29.4,18.9
2018-05-11,29.4,20.0,16.1
2018-05-12,33.3,15.6,18.9
2018-05-13,27.8,17.8,25.0
2018-05-14,27.8,20.0,30.0
2018-05-15,26.1,23.9,29.4
2018-05-16,30.0,27.2,20.0
2018-05-17,30.0,28.3,17.8
2018-05-18,27.8,23.3,17.2
2018-05-19,31.1,12.8,19.4
2018-05-20,28.9,11.7,20.6
2018-05-21,23.3,24.4,20.0
2018-05-22,28.3,25.6,21.1
2018-05-23,29.4,25.0,27.8
2018-05-24,30.6,27.8,26.1
2018-05-25,32.2,30.0,22.8
2018-05-26,28.9,31.1,20.6
2018-05-27,26.1,29.4,18.3
2018-05-28,28.3,20.6,24.4
2018-05-29,29.4,23.3,20.6
2018-05-30,29.4,26.7,18.3
2018-05-31,28.3,31.1,18.3
2018-06-01,31.1,30.6,16.1
2018-06-02,31.7,25.6,20.0
2018-06-03,32.2,25.0,26.1
2018-06-04,31.7,32.2,20.0
2018-06-05,32.8,35.0,17.8
2018-06-06,31.7,31.1,21.7
2018-06-07,31.7,32.8,23.9
2018-06-08,33.3,34.4,20.6
2018-06-09,32.2,33.3,18.9
2018-06-10,33.9,35.0,15.6
2018-06-11,33.3,29.4,13.3
2018-06-12,31.7,27.8,20.6
2018-06-13,32.8,32.8,23.9
2018-06-14,32.2,35.0,17.2
2018-06-15,30.6,33.3,18.3
2018-06-16,32.8,30.0,21.1
2018-06-17,32.2,21.7,23.9
2018-06-18,32.8,24.4,30.0
2018-06-19,33.3,22.2,27.8
2018-06-20,33.3,26.1,31.1
2018-06-21,34.4,26.1,31.7
2018-06-22,34.4,28.9,19.4
2018-06-23,33.3,29.4,22.2
2018-06-24,34.4,23.9,22.2
2018-06-25,33.9,28.9,30.0
2018-06-26,32.8,36.1,21.1
2018-06-27,33.9,34.4,22.2
2018-06-28,32.8,38.3,23.3
2018-06-29,32.8,33.3,22.2
2018-06-30,31.1,28.9,24.4
2018-07-01,31.1,28.9,22.8
2018-07-02,32.8,32.2,22.2
2018-07-03,34.4,32.8,20.0
2018-07-04,32.8,31.7,23.9
2018-07-05,31.1,28.9,27.2
2018-07-06,33.3,31.7,28.3
2018-07-07,32.2,35.0,26.1
2018-07-08,32.8,36.7,24.4
2018-07-09,32.2,33.9,28.3
2018-07-10,32.8,36.1,20.6
2018-07-11,32.2,34.4,23.9
2018-07-12,33.3,31.1,28.9
2018-07-13,32.8,30.6,33.3
2018-07-14,33.3,33.9,31.1
2018-07-15,32.8,30.0,31.7
2018-07-16,33.9,28.9,36.1
2018-07-17,34.4,28.9,33.9
2018-07-18,32.8,35.6,30.0
2018-07-19,32.2,35.6,26.7
2018-07-20,31.7,34.4,20.6
2018-07-21,32.2,34.4,23.9
2018-07-22,30.0,31.1,25.0
2018-07-23,32.8,22.8,32.8
2018-07-24,32.8,30.0,33.3
2018-07-25,32.8,27.8,33.3
2018-07-26,32.8,26.7,33.9
2018-07-27,32.8,25.6,33.9
2018-07-28,33.9,23.3,30.6
2018-07-29,35.0,24.4,30.6
2018-07-30,32.2,27.2,35.6
2018-07-31,31.1,30.0,31.1
2018-08-01,32.8,30.0,30.0
2018-08-02,33.3,32.2,27.8
2018-08-03,34.4,26.7,20.6
2018-08-04,33.9,34.4,23.3
2018-08-05,33.9,27.8,27.8
2018-08-06,33.9,28.3,31.7
2018-08-07,32.8,29.4,31.1
2018-08-08,33.9,27.8,33.3
2018-08-09,33.9,31.7,32.8
2018-08-10,33.9,32.2,33.9
2018-08-11,33.3,32.2,31.1
2018-08-12,30.0,31.7,23.3
2018-08-13,32.2,31.1,23.3
2018-08-14,32.2,27.2,30.6
2018-08-15,33.3,31.7,32.8
2018-08-16,33.9,30.6,29.4
2018-08-17,34.4,31.1,26.1
2018-08-18,34.4,26.7,25.6
2018-08-19,33.9,24.4,28.9
2018-08-20,35.0,23.3,28.9
2018-08-21,32.2,21.7,26.7
2018-08-22,34.4,25.6,32.8
2018-08-23,33.3,30.6,31.7
2018-08-24,31.7,31.7,22.2
2018-08-25,33.9,31.1,20.6
2018-08-26,33.3,32.2,20.0
2018-08-27,32.2,31.7,17.8
2018-08-28,33.3,24.4,24.4
2018-08-29,32.2,28.9,29.4
2018-08-30,31.7,31.7,27.2
2018-08-31,31.1,30.6,22.2
2018-09-01,31.7,30.0,22.2
2018-09-02,32.8,26.7,21.7
2018-09-03,32.2,27.2,25.0
2018-09-04,27.8,28.9,24.4
2018-09-05,32.8,20.6,26.7
2018-09-06,33.9,23.9,31.1
2018-09-07,33.3,25.0,28.9
2018-09-08,32.2,26.1,27.2
2018-09-09,32.2,31.7,22.2
2018-09-10,32.8,31.1,24.4
2018-09-11,31.7,33.3,21.1
2018-09-12,33.3,33.3,19.4
2018-09-13,34.4,33.9,18.9
2018-09-14,33.9,32.2,20.0
2018-09-15,33.9,32.2,20.0
2018-09-16,32.2,33.3,17.8
2018-09-17,33.3,33.3,18.9
2018-09-18,34.4,30.6,18.9
2018-09-19,34.4,27.8,20.0
2018-09-20,35.0,27.8,20.6
2018-09-21,35.6,24.4,21.1
2018-09-22,32.2,29.4,22.2
2018-09-23,33.3,30.6,20.6
2018-09-24,33.3,25.6,17.8
2018-09-25,33.9,19.4,21.1
2018-09-26,33.9,21.1,25.6
2018-09-27,34.4,24.4,26.1
2018-09-28,33.9,17.2,27.2
2018-09-29,33.9,25.6,28.3
2018-09-30,33.3,15.6,17.2
2018-10-01,33.3,20.0,20.0
2018-10-02,33.3,27.2,21.1
2018-10-03,32.2,27.8,20.6
2018-10-04,32.2,16.1,17.8
2018-10-05,33.3,23.3,17.2
2018-10-06,33.3,11.7,10.6
2018-10-07,32.8,11.1,15.6
2018-10-08,31.7,6.1,11.7
2018-10-09,29.4,6.1,14.4
2018-10-10,33.3,4.4,16.7
2018-10-11,30.6,6.7,18.9
2018-10-12,27.2,15.0,19.4
2018-10-13,31.1,18.3,20.6
2018-10-14,31.1,4.4,20.0
2018-10-15,33.3,9.4,19.4
2018-10-16,32.8,15.6,22.8
2018-10-17,32.8,16.1,25.6
2018-10-18,32.8,18.9,23.3
2018-10-19,32.8,21.1,21.7
2018-10-20,32.8,20.0,20.6
2018-10-21,32.2,25.0,17.2
2018-10-22,30.6,22.8,19.4
2018-10-23,30.6,17.2,20.0
2018-10-24,30.0,18.3,13.3
2018-10-25,29.4,21.1,14.4
2018-10-26,30.0,21.1,14.4
2018-10-27,29.4,25.0,16.1
2018-10-28,27.2,21.1,17.2
2018-10-29,24.4,24.4,15.6
2018-10-30,28.3,16.7,13.3
2018-10-31,29.4,10.0,11.1
2018-11-01,29.4,15.0,13.3
2018-11-02,29.4,18.3,17.2
2018-11-03,30.6,15.6,16.7
2018-11-04,25.0,8.9,13.3
2018-11-05,29.4,12.8,16.1
2018-11-06,30.6,11.1,12.8
2018-11-07,30.6,5.0,13.3
2018-11-08,31.1,5.6,9.4
2018-11-09,31.7,3.9,11.7
2018-11-10,31.7,13.3,8.9
2018-11-11,29.4,3.3,10.6
2018-11-12,30.0,0.0,15.0
2018-11-13,31.7,8.3,13.3
2018-11-14,30.6,16.1,7.2
2018-11-15,30.6,17.2,9.4
2018-11-16,24.4,15.0,12.8
2018-11-17,21.7,8.9,11.7
2018-11-18,25.6,6.1,13.3
2018-11-19,27.2,8.9,12.2
2018-11-20,27.8,12.2,12.8
2018-11-21,27.8,15.6,11.7
2018-11-22,25.6,11.7,8.3
2018-11-23,22.2,11.1,9.4
2018-11-24,27.2,8.3,8.9
2018-11-25,27.8,7.2,6.1
2018-11-26,27.2,7.2,7.2
2018-11-27,28.3,13.3,12.2
2018-11-28,18.3,15.6,15.0
2018-11-29,14.4,10.0,8.9
2018-12-01,26.1,7.8,8.9
2018-12-02,28.9,3.9,6.1
2018-12-03,29.4,2.2,8.3
2018-12-04,28.9,3.9,7.8
2018-12-05,27.8,5.0,7.2
2018-12-06,17.8,-1.7,7.2
2018-12-07,23.3,4.4,7.8
2018-12-08,25.6,8.9,4.4
2018-12-09,27.2,8.3,4.4
2018-12-10,22.8,11.1,3.9
2018-12-11,22.8,14.4,5.6
2018-12-12,15.0,8.9,9.4
2018-12-13,20.6,6.1,8.9
2018-12-14,26.1,11.1,12.2
2018-12-15,28.3,13.9,11.7
2018-12-16,22.2,13.9,10.0
2018-12-17,24.4,15.0,10.0
2018-12-18,18.9,13.3,10.6
2018-12-19,22.8,10.0,13.3
2018-12-20,22.8,8.3,12.8
2018-12-21,24.4,16.1,13.3
2018-12-22,17.8,7.8,7.2
2018-12-23,17.2,6.7,7.2
2018-12-24,20.6,7.8,8.9
2018-12-25,22.8,6.1,7.8
2018-12-26,23.9,4.4,5.0
2018-12-27,25.0,0.0,6.1
2018-12-28,26.7,-5.0,8.9
2018-12-29,29.4,1.7,7.2
2018-12-30,28.9,8.3,10.0
2018-12-31,28.9,4.4,7.2
2019-01-01,28.3,-9.4,6.7
2019-01-02,28.3,6.1,3.9
2019-01-03,28.9,13.9,7.8
2019-01-04,28.9,15.6,11.7
2019-01-05,28.3,15.0,10.0
2019-01-06,21.7,15.0,9.4
2019-01-07,22.8,11.7,5.0
2019-01-08,26.1,7.2,6.7
2019-01-09,26.1,3.9,7.8
2019-01-10,22.8,13.3,8.3
2019-01-11,16.7,5.6,11.1
2019-01-12,23.3,7.8,7.8
2019-01-13,25.6,6.7,12.2
2019-01-14,26.1,11.1,11.1
2019-01-15,21.1,11.7,8.9
2019-01-16,16.7,9.4,4.4
2019-01-17,18.3,10.6,7.8
2019-01-18,23.9,10.6,10.6
2019-01-19,25.6,7.2,8.9
2019-01-20,26.7,9.4,10.0
2019-01-21,26.7,9.4,5.6
2019-01-22,18.3,5.6,8.3
2019-01-23,24.4,5.0,10.0
2019-01-24,26.1,2.2,12.2
2019-01-25,21.1,2.8,9.4
2019-01-26,17.2,8.3,8.3
2019-01-27,15.6,15.6,5.6
2019-01-28,12.8,11.7,3.9
2019-01-29,13.9,1.1,10.6
2019-01-30,19.4,6.1,12.2
2019-01-31,17.2,11.1,10.0
2019-02-01,21.7,14.4,11.1
2019-02-02,26.1,16.1,8.9
2019-02-03,26.7,18.9,8.3
2019-02-04,25.6,10.0,6.7
2019-02-05,25.0,5.6,2.2
2019-02-06,26.1,0.6,1.1
2019-02-07,27.8,-11.7,2.8
2019-02-08,27.8,0.6,2.8
2019-02-09,28.3,4.4,1.7
2019-02-10,26.7,-1.1,1.1
2019-02-11,28.3,5.6,2.2
2019-02-12,29.4,10.0,7.2
2019-02-13,28.9,16.1,6.1
2019-02-14,15.6,13.9,6.1
2019-02-15,24.4,10.0,5.0
2019-02-16,26.1,6.7,7.8
2019-02-17,26.1,1.1,5.0
2019-02-18,29.4,-7.2,4.4
2019-02-19,30.0,-5.6,5.0
2019-02-20,31.1,3.3,5.6
2019-02-21,30.0,2.2,6.7
2019-02-22,30.0,-2.2,8.9
2019-02-23,31.1,6.7,5.6
2019-02-24,31.7,10.0,6.1
2019-02-25,28.9,11.1,3.9
2019-02-26,28.9,10.6,2.2
2019-02-27,26.1,4.4,3.3
2019-02-28,27.2,10.6,2.2
2019-03-01,26.1,11.1,6.7
2019-03-02,29.4,3.9,10.0
2019-03-03,29.4,-12.2,8.9
2019-03-04,28.9,-6.1,3.9
2019-03-05,28.3,-0.6,5.0
2019-03-06,18.3,4.4,6.1
2019-03-07,18.9,5.0,1.7
2019-03-08,23.9,8.3,7.2
2019-03-09,27.2,11.1,5.0
2019-03-10,28.9,10.0,8.9
2019-03-11,30.0,10.6,10.6
2019-03-12,30.6,16.1,12.2
2019-03-13,26.1,12.8,8.3
2019-03-14,27.8,3.9,11.1
2019-03-15,28.9,7.2,12.8
2019-03-16,28.9,8.9,16.7
2019-03-17,23.9,12.8,15.6
2019-03-18,25.6,10.6,20.6
2019-03-19,22.2,9.4,18.9
2019-03-20,17.2,16.7,20.6
2019-03-21,23.3,15.6,22.2
2019-03-22,22.8,13.9,13.3
2019-03-23,23.3,9.4,11.7
2019-03-24,26.1,14.4,14.4
2019-03-25,27.2,16.1,15.0
2019-03-26,28.9,19.4,12.2
2019-03-27,27.8,21.1,13.9
2019-03-28,24.4,16.7,12.2
2019-03-29,26.7,5.6,16.1
2019-03-30,27.8,5.6,16.1
2019-03-31,27.8,11.1,19.4
2019-04-01,28.3,15.0,20.0
2019-04-02,28.3,12.8,18.9
2019-04-03,28.3,16.7,15.0
2019-04-04,28.3,19.4,15.0
2019-04-05,28.3,21.7,13.9
2019-04-06,30.6,21.1,12.8
2019-04-07,31.1,22.2,13.9
2019-04-08,31.7,23.9,12.2
2019-04-09,30.6,24.4,14.4
2019-04-10,30.6,20.6,12.8
2019-04-11,27.8,5.6,10.0
2019-04-12,30.6,5.0,10.6
2019-04-13,32.2,8.3,14.4
2019-04-14,32.2,18.3,10.0
2019-04-15,30.6,20.6,9.4
2019-04-16,30.6,18.3,10.6
2019-04-17,30.6,18.9,14.4
2019-04-18,30.0,16.1,17.2
2019-04-19,32.8,23.9,22.2
2019-04-20,28.9,25.6,15.0
2019-04-21,28.9,20.6,17.2
2019-04-22,25.6,10.0,15.6
2019-04-23,27.8,20.0,17.2
2019-04-24,28.9,22.8,18.9
2019-04-25,30.0,18.9,17.8
2019-04-26,29.4,25.0,21.1
2019-04-27,28.3,17.2,18.3
2019-04-28,31.1,22.8,12.8
2019-04-29,31.1,10.0,17.8
2019-04-30,32.2,3.9,18.9
2019-05-01,31.1,11.1,19.4
2019-05-02,31.1,15.6,18.3
2019-05-03,31.1,20.0,16.7
2019-05-04,31.7,22.8,18.9
2019-05-05,32.2,22.8,21.7
2019-05-07,30.6,10.6,26.1
2019-05-08,33.3,10.0,24.4
2019-05-09,32.8,5.6,23.9
2019-05-10,32.8,12.8,27.8
2019-05-11,32.8,18.3,30.0
2019-05-12,32.2,25.0,28.3
2019-05-13,31.7,26.7,21.7
2019-05-14,31.1,27.8,20.6
2019-05-15,27.8,27.8,15.0
2019-05-16,30.6,26.7,17.2
2019-05-17,31.1,20.6,13.9
2019-05-18,32.2,17.2,16.1
2019-05-19,32.2,10.0,21.1
2019-05-20,33.3,8.9,16.1
2019-05-21,33.3,7.8,15.6
2019-05-22,33.9,12.2,17.2
2019-05-23,33.9,8.3,21.7
2019-05-24,33.3,22.2,25.0
2019-05-25,33.3,22.8,16.1
2019-05-26,33.9,23.9,12.2
2019-05-27,34.4,20.0,22.8
2019-05-28,35.0,14.4,19.4
2019-05-29,35.6,18.3,17.8
2019-05-30,34.4,21.7,22.8
2019-05-31,35.6,24.4,23.9
2019-06-01,36.7,23.9,25.6
2019-06-02,33.3,26.1,24.4
2019-06-03,34.4,26.7,24.4
2019-06-04,35.0,28.3,21.7
2019-06-05,36.1,26.1,23.9
2019-06-06,35.6,27.8,18.3
2019-06-07,33.3,30.6,16.1
2019-06-08,32.2,27.8,16.1
2019-06-09,33.3,18.9,18.9
2019-06-10,31.7,25.0,25.0
2019-06-11,31.7,25.0,27.2
2019-06-12,32.2,23.9,33.9
2019-06-13,32.8,30.0,33.9
2019-06-14,32.2,28.3,26.7
2019-06-15,32.2,26.1,20.0
2019-06-16,32.2,23.9,24.4
2019-06-17,32.2,22.8,24.4
2019-06-18,32.2,20.0,25.0
2019-06-19,32.2,28.3,20.6
2019-06-20,32.2,26.7,18.3
2019-06-21,33.9,21.1,18.3
2019-06-22,35.0,17.8,19.4
2019-06-23,33.9,20.0,20.6
2019-06-24,36.1,27.8,19.4
2019-06-25,35.6,28.9,20.0
2019-06-26,36.7,31.7,21.7
2019-06-27,36.7,32.2,23.3
2019-06-28,36.1,34.4,14.4
2019-06-29,36.1,34.4,22.2
2019-06-30,35.6,33.9,25.6
2019-07-01,33.3,29.4,27.2
2019-07-03,35.0,32.8,18.9
2019-07-05,35.0,26.1,24.4
2019-07-06,35.6,26.7,22.2
2019-07-07,33.9,30.0,17.8
2019-07-08,31.1,28.9,21.1
2019-07-09,30.6,32.8,23.3
2019-07-10,30.6,28.9,21.7
2019-07-11,32.2,35.6,22.2
2019-07-12,30.6,32.2,25.0
2019-07-13,31.1,32.2,26.7
2019-07-14,35.0,33.9,25.6
2019-07-15,35.6,32.8,27.8
2019-07-16,35.6,32.2,23.9
2019-07-17,35.0,33.9,26.1
2019-07-18,34.4,36.7,21.7
2019-07-19,34.4,36.7,22.2
2019-07-20,35.0,31.7,22.8
2019-07-25,31.7,30.0,25.6
2019-07-26,30.6,31.7,30.6
2019-07-27,30.6,29.4,31.1
2019-07-28,31.7,33.3,24.4
2019-07-29,33.9,33.3,27.2
2019-07-30,33.9,33.9,26.7
2019-07-31,33.9,32.8,24.4
2019-08-01,33.9,28.3,28.3
2019-08-02,31.1,33.3,30.0
2019-08-03,31.1,33.9,25.0
2019-08-04,32.2,33.3,28.9
2019-08-05,31.1,31.7,32.2
2019-08-06,29.4,35.6,30.0
2019-08-07,30.0,30.0,27.2
2019-08-08,30.0,28.3,21.1
2019-08-09,32.8,34.4,20.0
2019-08-10,33.3,28.3,23.3
2019-08-11,31.1,27.8,24.4
2019-08-12,31.7,32.2,23.3
2019-08-13,31.7,30.6,26.1
2019-08-14,32.2,31.1,30.6
2019-08-15,31.1,33.3,28.3
2019-08-16,31.1,27.8,26.1
2019-08-17,29.4,30.0,22.8
2019-08-18,31.1,28.9,20.6
2019-08-19,33.9,35.6,23.3
2019-08-20,32.2,36.7,25.0
2019-08-21,32.2,27.2,28.3
2019-08-22,33.3,30.6,21.7
2019-08-23,33.3,30.0,22.2
2019-08-24,33.9,32.2,26.7
2019-08-25,33.9,35.6,25.6
2019-08-26,33.9,31.1,23.9
2019-08-27,34.4,23.9,28.3
2019-08-28,34.4,32.8,34.4
2019-08-29,31.1,32.8,34.4
2019-08-30,33.9,27.8,26.7
2019-08-31,33.3,31.1,24.4
2019-09-01,32.8,35.6,26.7
2019-09-02,32.8,37.2,26.7
2019-09-03,32.2,27.8,26.7
2019-09-04,31.7,30.0,27.2
2019-09-05,32.2,36.1,25.0
2019-09-06,33.3,26.1,30.0
2019-09-07,33.9,31.7,25.0
2019-09-08,32.8,24.4,18.9
2019-09-09,33.9,27.8,20.0
2019-09-10,34.4,27.8,18.9
2019-09-11,33.9,24.4,18.9
2019-09-12,33.3,24.4,22.2
2019-09-13,33.9,26.1,26.1
2019-09-14,32.2,29.4,23.3
2019-09-15,31.7,30.6,23.3
2019-09-16,32.8,31.7,14.4
2019-09-17,32.8,30.6,19.4
2019-09-18,33.3,25.0,16.7
2019-09-19,33.9,28.3,18.9
2019-09-20,31.1,29.4,20.0
2019-09-21,27.8,23.3,19.4
2019-09-22,31.1,22.2,20.0
2019-09-23,31.1,26.7,17.2
2019-09-24,31.1,28.3,18.3
2019-09-25,31.1,23.9,22.2
2019-09-26,32.2,26.1,21.1
2019-09-27,31.7,24.4,18.9
2019-09-28,32.2,22.8,16.1
2019-09-29,33.3,30.0,14.4
2019-09-30,32.8,22.2,9.4
2019-10-01,32.8,13.3,13.9
2019-10-02,32.2,13.9,16.1
2019-10-03,32.2,18.3,15.6
2019-10-04,32.8,21.7,14.4
2019-10-05,33.3,21.7,15.6
2019-10-06,31.7,16.7,17.2
2019-10-07,31.7,21.7,20.6
2019-10-08,31.7,25.0,18.3
2019-10-09,32.2,25.6,12.2
2019-10-10,30.6,4.4,12.8
2019-10-11,30.6,10.6,16.7
2019-10-12,31.7,16.7,18.3
2019-10-13,30.0,22.2,14.4
2019-10-14,31.1,23.3,16.7
2019-10-15,31.7,17.2,16.7
2019-10-16,31.7,23.9,15.0
2019-10-17,31.1,24.4,12.8
2019-10-18,30.0,20.6,12.8
2019-10-19,27.2,17.8,13.3
2019-10-20,30.0,10.6,13.3
2019-10-21,30.0,12.8,12.2
2019-10-22,31.7,18.9,15.0
2019-10-23,32.2,14.4,16.1
2019-10-24,30.0,7.8,15.0
2019-10-25,32.2,17.8,20.0
2019-10-26,31.7,23.3,15.6
2019-10-27,31.7,3.3,12.8
2019-10-28,31.7,-1.1,13.9
2019-10-29,32.2,-4.4,11.7
2019-10-30,32.2,-3.3,7.2
2019-10-31,32.2,8.3,12.8
2019-11-01,32.2,6.1,11.7
2019-11-02,29.4,11.1,18.3
2019-11-03,31.1,13.9,17.2
2019-11-04,28.3,10.0,14.4
2019-11-05,28.9,13.9,12.8
2019-11-06,31.1,11.7,10.6
2019-11-07,31.7,7.8,17.8
2019-11-08,31.1,20.0,15.6
2019-11-09,30.6,22.8,16.7
2019-11-10,30.6,15.6,8.9
2019-11-11,27.2,3.9,11.1
2019-11-12,28.9,12.2,15.6
2019-11-13,28.3,16.7,9.4
2019-11-14,22.8,11.7,11.7
2019-11-15,27.2,17.2,13.3
2019-11-16,26.7,17.8,12.8
2019-11-17,18.9,12.2,11.1
2019-11-18,18.3,19.4,11.7
2019-11-19,22.2,15.0,12.8
2019-11-20,23.3,11.1,11.1
2019-11-21,23.9,0.0,12.2
2019-11-22,26.1,3.3,12.8
2019-11-23,27.2,13.3,10.0
2019-11-24,27.8,15.6,9.4
2019-11-25,23.3,13.3,8.9
2019-11-26,21.1,-1.7,8.9
2019-11-27,24.4,-3.9,5.6
2019-11-28,27.2,-1.1,6.7
2019-11-29,27.8,-1.1,5.0
2019-11-30,27.8,2.2,6.1
2019-12-01,27.2,1.7,6.1
2019-12-02,27.2,12.8,4.4
2019-12-03,20.0,13.9,9.4
2019-12-04,20.0,9.4,7.2
2019-12-05,20.6,5.0,8.3
2019-12-06,21.1,8.9,11.7
2019-12-07,23.9,11.7,8.3
2019-12-08,25.6,10.6,6.7
2019-12-09,26.7,6.7,9.4
2019-12-10,27.8,1.7,6.7
2019-12-11,28.9,5.6,5.0
2019-12-12,30.6,7.8,8.9
2019-12-13,24.4,8.3,10.6
2019-12-14,25.0,2.8,7.8
2019-12-15,25.0,0.0,6.7
2019-12-16,25.6,2.2,5.6
2019-12-17,29.4,3.9,9.4
2019-12-18,20.0,10.0,5.6
2019-12-19,16.7,7.2,5.6
2019-12-20,20.6,9.4,13.3
2019-12-21,23.9,13.3,12.2
2019-12-22,23.9,6.7,8.9
2019-12-23,21.1,10.6,6.1
2019-12-24,23.3,13.9,8.3
2019-12-25,18.3,8.3,2.8
2019-12-26,26.7,5.0,5.0
2019-12-27,27.2,2.2,6.7
2019-12-28,26.7,0.0,5.0
2019-12-29,26.1,1.1,7.8
2019-12-30,26.7,1.7,6.1
2019-12-31,27.8,5.6,7.8
